{
  "name": "pedeon",
  "css_prefix_text": "icon-",
  "css_use_suffix": false,
  "hinting": true,
  "units_per_em": 1000,
  "ascent": 850,
  "glyphs": [
    {
      "uid": "2ce5b691af7d28da05cd6c2b668a721b",
      "css": "users",
      "code": 59392,
      "src": "custom_icons",
      "selected": true,
      "svg": {
        "path": "M603.5 223.7C649.7 252.7 682.1 301.7 688 358.7 706.9 367.5 727.8 372.5 750 372.5 831 372.5 896.7 306.9 896.7 225.9 896.7 144.9 831 79.2 750 79.2 669.8 79.2 604.7 143.7 603.5 223.7ZM507.4 523.9C588.4 523.9 654 458.3 654 377.3S588.4 230.6 507.4 230.6C426.4 230.6 360.7 296.3 360.7 377.3S426.4 523.9 507.4 523.9ZM569.6 533.9H445.1C341.6 533.9 257.4 618.2 257.4 721.7V873.9L257.7 876.3 268.2 879.6C367 910.5 452.9 920.8 523.5 920.8 661.6 920.8 741.6 881.4 746.5 878.9L756.3 874H757.3V721.7C757.4 618.2 673.1 533.9 569.6 533.9ZM812.2 382.5H688.7C687.4 431.9 666.3 476.4 633 508.4 725 535.8 792.3 621.2 792.3 722V768.9C914.3 764.4 984.5 729.8 989.2 727.5L999 722.6H1000V570.3C1000 466.8 915.8 382.5 812.2 382.5ZM250 372.6C278.7 372.6 305.4 364.2 328 349.9 335.2 303 360.4 262.1 396.3 234.2 396.4 231.4 396.7 228.7 396.7 225.9 396.7 144.9 331 79.3 250 79.3 169 79.3 103.4 144.9 103.4 225.9 103.4 306.9 169 372.6 250 372.6ZM381.7 508.4C348.5 476.6 327.5 432.3 326 383.2 321.4 382.9 316.9 382.5 312.2 382.5H187.8C84.2 382.5 0 466.8 0 570.3V722.5L0.4 724.9 10.9 728.2C90.1 752.9 160.9 764.3 222.3 767.9V722C222.4 621.2 289.7 535.8 381.7 508.4Z",
        "width": 1000
      },
      "search": [
        "users"
      ]
    },
    {
      "uid": "b5b9a47100a521e9a7fc809e76c2230d",
      "css": "copy",
      "code": 59412,
      "src": "custom_icons",
      "selected": true,
      "svg": {
        "path": "M578.1 93.8H344.7C301.6 93.8 265.6 127.7 265.6 170.9V187.5H251C207.8 187.5 171.9 221.5 171.9 264.6V827.1C171.9 870.3 207.8 906.3 251 906.3H657.2C700.4 906.3 734.4 870.3 734.4 827.1V812.5H751C794.1 812.5 828.1 776.6 828.1 733.4V343.8L578.1 93.8ZM578.1 180.9L741 343.8H578.1V180.9ZM671.9 827.1C671.9 836.3 665.2 843.8 657.2 843.8H251C242.4 843.8 234.4 835.7 234.4 827.1V264.6C234.4 256.6 241.8 250 251 250H265.6V749C265.6 792.2 285.9 812.5 329.1 812.5H671.9V827.1ZM765.6 733.4C765.6 742.6 759 750 751 750H344.7C336.1 750 328.1 742 328.1 733.4V170.9C328.1 162.9 335.5 156.3 344.7 156.3H515.6V406.3H765.6V733.4Z",
        "width": 1000
      },
      "search": [
        "copy"
      ]
    },
    {
      "uid": "bc5e029f5695a2472c937e04915fa85b",
      "css": "home",
      "code": 59432,
      "src": "custom_icons",
      "selected": true,
      "svg": {
        "path": "M406.3 875V625H593.8V875H784.4V500H906.3L500 125 93.8 500H215.6V875Z",
        "width": 1000
      },
      "search": [
        "home"
      ]
    },
    {
      "uid": "b470dd6edcd8596f55a7852fc8b041ea",
      "css": "pin",
      "code": 59452,
      "src": "custom_icons",
      "selected": true,
      "svg": {
        "path": "M500 93.8C344.7 93.8 218.8 210.7 218.8 354.9 218.8 558 500 906.3 500 906.3S781.3 558 781.3 354.9C781.3 210.7 655.3 93.8 500 93.8ZM500 466.6C449.4 466.6 408.4 425.6 408.4 375S449.4 283.4 500 283.4 591.6 324.4 591.6 375 550.6 466.6 500 466.6Z",
        "width": 1000
      },
      "search": [
        "pin"
      ]
    },
    {
      "uid": "43192fc0b093fa251177d12135e7ebd4",
      "css": "star-empty",
      "code": 59472,
      "src": "custom_icons",
      "selected": true,
      "svg": {
        "path": "M894.5 411L610.8 386.6 500 125 389.2 386.6 105.5 411 320.7 597.5 256.2 875 500 727.9 743.8 875 679.3 597.5 894.5 411ZM532.3 674.4L500 654.9 467.7 674.4 350.6 745.1 381.6 611.7 390.1 575 361.6 550.3 258.1 460.6 394.5 448.9 432 445.6 446.7 411 500 285.2 553.3 411 567.9 445.6 605.5 448.9 741.9 460.6 638.4 550.3 609.9 575 618.4 611.7 649.4 745.1 532.3 674.4Z",
        "width": 1000
      },
      "search": [
        "star-empty"
      ]
    },
    {
      "uid": "be6b59a1fa062bfde2f744c4abce0450",
      "css": "text",
      "code": 59473,
      "src": "custom_icons",
      "selected": true,
      "svg": {
        "path": "M847 0H462.9C451.1 0 439.8 4.4 431.1 12.3L121.3 296C111.6 305 106.1 317.6 106.1 330.7V953C106.1 978.9 127.2 1000 153 1000H847C872.9 1000 893.9 978.9 893.9 953V47C893.9 21 872.9 0 847 0ZM427.3 143.3V317.7H236.8L427.3 143.3ZM800 906.1H200V411.6H474.3C500.2 411.6 521.2 390.6 521.2 364.6V93.9H800V906.1L800 906.1ZM309.8 547H706.3V640.9H309.8V547ZM309.8 714H706.3V807.9H309.8V714Z",
        "width": 1000
      },
      "search": [
        "text"
      ]
    },
    {
      "uid": "7928e26250698463d7897dd28ca8e11e",
      "css": "landphone",
      "code": 59453,
      "src": "custom_icons",
      "selected": true,
      "svg": {
        "path": "M505.5 238.7C674 240.4 779.5 229.9 793.8 416.7H999.3C999.3 127.3 747 88.3 500.1 88.3 253.3 88.3 1 127.3 1 416.7H204.9C220.7 226.3 338.4 237.1 505.5 238.7ZM102.9 509.7C153 509.7 194.6 512.7 203.9 463.4 205.1 456.8 205.8 449.2 205.8 440.4H203.5 0C0 513.6 46.1 509.7 102.9 509.7ZM795.1 440.4H793.2C793.2 449.2 794 456.8 795.4 463.4 805.1 508.8 846.7 506 896.6 506 953.7 506 1000 509.8 1000 440.4H795.1ZM694.7 390.5V361.4C694.7 348.4 679.8 347.6 661.2 347.6H631C612.5 347.6 597.5 348.4 597.5 361.4V386.5 405.9H383.5V386.5 361.4C383.5 348.4 368.5 347.6 350 347.6H319.8C301.3 347.6 286.3 348.4 286.3 361.4V390.5 415.9C237.5 466.6 78.1 682.2 72.3 708.3L72.3 882.5C72.3 898.5 85.4 911.6 101.5 911.6H879.5C895.6 911.6 908.7 898.5 908.7 882.5V707.4C903 682.1 743.5 466.6 694.7 415.9V390.5ZM373 731.7C357.3 731.7 344.6 719 344.6 703.4S357.3 675 373 675 401.4 687.7 401.4 703.4 388.7 731.7 373 731.7ZM373 634.5C357.3 634.5 344.6 621.8 344.6 606.1S357.3 577.8 373 577.8 401.4 590.4 401.4 606.1 388.7 634.5 373 634.5ZM373 537.2C357.3 537.2 344.6 524.6 344.6 508.9 344.6 493.2 357.3 480.5 373 480.5S401.4 493.2 401.4 508.9C401.4 524.6 388.7 537.2 373 537.2ZM489.7 731.7C474 731.7 461.3 719 461.3 703.4S474 675 489.7 675C505.4 675 518.1 687.7 518.1 703.4S505.4 731.7 489.7 731.7ZM489.7 634.5C474 634.5 461.3 621.8 461.3 606.1S474 577.8 489.7 577.8C505.4 577.8 518.1 590.4 518.1 606.1S505.4 634.5 489.7 634.5ZM489.7 537.2C474 537.2 461.3 524.6 461.3 508.9 461.3 493.2 474 480.5 489.7 480.5 505.4 480.5 518.1 493.2 518.1 508.9 518.1 524.6 505.4 537.2 489.7 537.2ZM606.4 731.7C590.7 731.7 578 719 578 703.4S590.7 675 606.4 675 634.8 687.7 634.8 703.4 622.1 731.7 606.4 731.7ZM606.4 634.5C590.7 634.5 578 621.8 578 606.1S590.7 577.8 606.4 577.8 634.8 590.4 634.8 606.1 622.1 634.5 606.4 634.5ZM606.4 537.2C590.7 537.2 578 524.6 578 508.9 578 493.2 590.7 480.5 606.4 480.5S634.8 493.2 634.8 508.9C634.8 524.6 622.1 537.2 606.4 537.2Z",
        "width": 1000
      },
      "search": [
        "landphone"
      ]
    },
    {
      "uid": "15827849cedeaef393451f38c59eb463",
      "css": "grid",
      "code": 59433,
      "src": "custom_icons",
      "selected": true,
      "svg": {
        "path": "M770.7 666.4C713.1 666.4 666.4 713.1 666.4 770.7S713.1 875 770.7 875 875 828.3 875 770.7 828.3 666.4 770.7 666.4ZM500 666.4C442.4 666.4 395.7 713.1 395.7 770.7S442.4 875 500 875 604.3 828.3 604.3 770.7 557.6 666.4 500 666.4ZM229.3 666.4C171.7 666.4 125 713.1 125 770.7S171.7 875 229.3 875 333.6 828.3 333.6 770.7 286.9 666.4 229.3 666.4ZM770.7 395.7C713.1 395.7 666.4 442.4 666.4 500S713.1 604.3 770.7 604.3 875 557.6 875 500 828.3 395.7 770.7 395.7ZM500 395.7C442.4 395.7 395.7 442.4 395.7 500S442.4 604.3 500 604.3 604.3 557.6 604.3 500 557.6 395.7 500 395.7ZM229.3 395.7C171.7 395.7 125 442.4 125 500S171.7 604.3 229.3 604.3 333.6 557.6 333.6 500 286.9 395.7 229.3 395.7ZM770.7 125C713.1 125 666.4 171.7 666.4 229.3S713.1 333.6 770.7 333.6 875 286.9 875 229.3 828.3 125 770.7 125ZM500 125C442.4 125 395.7 171.7 395.7 229.3S442.4 333.6 500 333.6 604.3 286.9 604.3 229.3 557.6 125 500 125ZM229.3 125C171.7 125 125 171.7 125 229.3S171.7 333.6 229.3 333.6 333.6 286.9 333.6 229.3 286.9 125 229.3 125Z",
        "width": 1000
      },
      "search": [
        "grid"
      ]
    },
    {
      "uid": "773142bb97d63fc2dff9a1530214ad93",
      "css": "chevron-r",
      "code": 59413,
      "src": "custom_icons",
      "selected": true,
      "svg": {
        "path": "M791.4 442.2L372.9 24.4C357.5 8.1 338.3 0 315.2 0 292 0 272.8 8.1 257.4 24.4L208.6 72.5C192.8 88.4 184.9 107.6 184.9 130.3 184.9 152.5 192.8 172 208.6 188.7L520.5 500 208.6 811.9C192.8 827.8 184.8 847 184.8 869.7 184.8 892 192.8 911.4 208.6 928.1L257.4 976.2C273.2 992.1 292.5 1000 315.1 1000 337.8 1000 357.1 992.1 372.9 976.2L791.4 558.4C807.2 541.7 815.2 522.2 815.2 500 815.2 477.3 807.2 458.1 791.4 442.2Z",
        "width": 1000
      },
      "search": [
        "chevron-r"
      ]
    },
    {
      "uid": "8557727c432a3d7cd4493dc0c6528435",
      "css": "vdots",
      "code": 59393,
      "src": "custom_icons",
      "selected": true,
      "svg": {
        "path": "M500 267.6C426.3 267.6 366.7 207.7 366.7 133.8 366.7 59.9 426.3 0 500 0 573.6 0 633.3 59.9 633.3 133.8 633.3 207.7 573.6 267.6 500 267.6ZM500.1 633.8C426.3 633.8 366.7 573.9 366.7 500 366.7 426.1 426.3 366.2 500 366.2 573.6 366.2 633.3 426.1 633.3 500 633.3 573.9 573.5 633.8 500.1 633.8ZM500.1 1000C426.3 1000 366.7 940.1 366.7 866.2S426.3 732.4 500 732.4C573.6 732.4 633.3 792.3 633.3 866.2S573.5 1000 500.1 1000Z",
        "width": 1000
      },
      "search": [
        "vdots"
      ]
    },
    {
      "uid": "e9d8a47dd4c8328d3c0263741b1cc943",
      "css": "woman",
      "code": 59394,
      "src": "custom_icons",
      "selected": true,
      "svg": {
        "path": "M371.9 290.2L314.5 493.9C302.1 538.5 354.9 555.9 367.8 514.1L419.1 326.2H433.6L345.3 656.3H427.7V904.3C427.7 949.2 490.2 949.2 490.2 904.3V656.3H509.8V904.3C509.8 949.2 570.3 949.2 570.3 904.3V656.3H655.1L564.8 326.2H581.2L632.6 514.1C645.3 556.8 697.7 538.5 685.9 494.1L628.5 290.2C620.7 267.2 593 226.6 546.5 224.6H454.1C406.1 226.6 378.5 266.8 371.9 290.2ZM571.5 135.2C571.5 94.9 539.5 62.3 500 62.3 460.5 62.3 428.5 94.9 428.5 135.2 428.5 175.4 460.5 208 500 208 539.5 208 571.5 175.4 571.5 135.2Z",
        "width": 1000
      },
      "search": [
        "woman"
      ]
    },
    {
      "uid": "43714f751c81bfc4509fa9efc882c71c",
      "css": "chevron-u",
      "code": 59414,
      "src": "custom_icons",
      "selected": true,
      "svg": {
        "path": "M975.6 626.5L558.4 208.6C541.7 192.8 522.3 184.8 500 184.8 477.3 184.8 458.1 192.8 442.2 208.6L24.4 626.5C8.1 642.7 0 662.2 0 684.9 0 708 8.1 727.2 24.4 742.6L72.5 790.8C87.9 807 107.2 815.2 130.3 815.2 153.4 815.2 172.6 807 188.1 790.8L500 479.5 811.9 790.7C827.3 807 846.6 815.1 869.7 815.1 892.4 815.1 911.9 807 928.1 790.7L976.2 742.6C992.1 726.8 1000 707.5 1000 684.9 1000 662.2 991.9 642.7 975.6 626.5Z",
        "width": 1000
      },
      "search": [
        "chevron-u"
      ]
    },
    {
      "uid": "4e239f3c8141c3196ff46bc042b3324b",
      "css": "fingerprint",
      "code": 59434,
      "src": "custom_icons",
      "selected": true,
      "svg": {
        "path": "M152.5 401.6C147.9 401.6 143 400.4 138.7 397.9 125.6 390.2 121.1 373.6 128.7 360.5 163.5 302 269.1 165 500 165 600 165 687.7 191.6 760.5 243.9 820.5 286.9 854.1 335.5 870.1 359 878.7 371.5 875.4 388.3 862.9 396.9 850.4 405.3 833.2 402.1 824.6 389.6 795.5 347.5 707.2 219.3 500 219.3 297.7 219.3 206.3 337.3 176.4 387.9 171.3 396.9 162.1 401.6 152.5 401.6ZM616.2 937.5C613.9 937.5 611.7 937.3 609.4 936.7 442 894.7 379.5 725.6 377 718.6L376.6 717C375.2 712.1 341.6 596.1 393.2 528.1 416.8 497.1 452.7 481.3 500.2 481.3 544.3 481.3 576.2 495.1 598 523.8 616 547.3 623.2 576.2 630.3 604.1 644.9 662.1 655.5 692.6 716.4 695.7 743.2 697.1 760.7 681.3 770.7 667.8 797.7 631.1 802.3 571.1 782 518.4 755.9 450 663.3 321.3 500 321.3 430.3 321.3 366.2 343.9 314.8 386.5 272.3 421.9 238.5 471.7 222.3 522.9 192.2 618.2 231.6 768 232 769.3 235.9 783.8 227.1 798.8 212.5 802.5 197.9 806.4 182.6 797.7 178.7 783.2 177 776.4 134.8 616.6 169.5 506.4 207.4 387.1 324.2 266.8 500 266.8 581.3 266.8 658 294.7 722.1 347.5 771.7 388.5 812.3 443.6 833.4 498.6 860.4 568.9 853.1 647.9 815 699.4 789.6 733.8 753.5 751.8 713.5 749.8 609.2 744.5 590.4 670.9 576.8 617.2 562.7 562.1 553.7 535.5 500 535.5 470.5 535.5 449.8 543.8 436.9 560.7 419.3 584 418 620.3 419.9 646.7 421.9 674.2 427.7 696.5 429.1 701 433.4 711.9 489.3 850.4 623 884 637.9 887.7 646.7 902.5 643 917 639.6 929.3 628.5 937.5 616.2 937.5ZM401.4 925C393.9 925 386.7 922.1 381.3 916.4 314.3 845.3 276.4 765.8 262.1 666.4V665.8C254.1 600 265.8 506.8 323.2 442.8 365.6 395.5 425.2 371.5 500 371.5 588.5 371.5 658 413.1 701.4 491.6 732.8 548.6 739.1 605.5 739.3 607.8 740.8 622.9 729.7 636.1 714.6 637.7 699.6 639.3 685.9 628.3 684.4 613.5 684.4 612.9 678.9 564.1 652.1 516.4 618.6 456.4 567.4 426 499.8 426 441.4 426 395.7 443.8 364.3 478.9 318.9 529.5 310.2 607.4 316.4 659 328.9 746.9 362.3 816.8 421.3 879.3 431.6 890.2 431.1 907.6 419.9 917.8 414.8 922.5 408 925 401.4 925ZM710 846.7C651.4 846.7 601.6 830.3 561.7 797.7 481.6 732.4 472.7 626.2 472.3 621.7 471.1 606.6 482.4 593.6 497.7 592.4 512.9 591.2 526 602.3 527.1 617.4 527.3 618.9 535.4 705.9 597.1 755.9 633.6 785.4 682.4 797.1 742.6 790.2 757.6 788.5 771.3 799.2 773 814.3 774.8 829.3 763.9 842.8 748.8 844.3 735.5 845.9 722.5 846.7 710 846.7ZM756.3 122.3C733.4 107.2 652.3 62.5 500 62.5 340 62.5 258.8 111.9 240.8 124.4 239.6 125.2 238.5 126 237.5 127 237.3 127.1 237.1 127.1 237.1 127.1 231.4 132.2 227.9 139.5 227.9 147.5 227.9 162.5 240.2 174.6 255.5 174.6 261.5 174.6 267 172.7 271.5 169.5L271.3 169.7C272.1 169.1 342.2 117 500 117S727.9 169.3 728.7 169.7L728.5 169.5 728.9 169.1C733.6 172.7 739.3 174.6 745.5 174.6 760.7 174.6 773 162.5 773 147.5 773 136.1 766.2 126.4 756.3 122.3Z",
        "width": 1000
      },
      "search": [
        "fingerprint"
      ]
    },
    {
      "uid": "cf6737f078da7888aa01363064cb56bb",
      "css": "power",
      "code": 59454,
      "src": "custom_icons",
      "selected": true,
      "svg": {
        "path": "M545.1 93.8H454.9V545.1H545.1V93.8ZM763.1 191.8L699 255.9C770.3 313.3 816 401.2 816 500 816 674.6 674.8 816 500 816S184 674.6 184 500C184 401.2 229.5 313.1 300.4 255.3L236.7 191.6C149.2 266.2 93.8 376.4 93.8 500 93.8 724.4 275.6 906.3 500 906.3S906.3 724.4 906.3 500C906.3 376.4 850.8 266.2 763.1 191.8Z",
        "width": 1000
      },
      "search": [
        "power"
      ]
    },
    {
      "uid": "cd5205181a623e75e095d392226f3aa9",
      "css": "search",
      "code": 59474,
      "src": "custom_icons",
      "selected": true,
      "svg": {
        "path": "M988.7 877.4L781.8 670.5C774.2 662.8 774.2 655.2 778 647.5 820.2 582.4 843.1 505.7 843.1 421.5 843.1 187.7 655.4 0 421.7 0S0.2 187.7 0.2 421.5 188 842.9 421.7 842.9C506 842.9 582.6 819.9 647.7 777.8 655.4 773.9 666.9 773.9 670.7 781.6L877.6 988.5C893 1003.8 915.9 1003.8 931.3 988.5L984.9 934.9C1004.1 915.7 1004.1 892.7 988.7 877.4ZM425.5 689.7C276.1 689.7 157.3 570.9 157.3 421.5S276.1 153.3 425.5 153.3 693.7 272 693.7 421.5 574.9 689.7 425.5 689.7Z",
        "width": 1000
      },
      "search": [
        "search"
      ]
    },
    {
      "uid": "55d01586d0bcf152127c4c2e835a8d51",
      "css": "shipping",
      "code": 59475,
      "src": "custom_icons",
      "selected": true,
      "svg": {
        "path": "M266.2 529.3H617.8C633.9 529.3 647 516.2 647 500V146.5C647 130.3 633.9 117.2 617.8 117.2H529.9V87.9C529.9 39.4 490.4 0 442 0S354.1 39.4 354.1 87.9V117.2H266.2C250 117.2 236.9 130.3 236.9 146.5V500C236.9 516.2 250 529.3 266.2 529.3ZM412.7 87.9C412.7 71.7 425.8 58.6 442 58.6 458.1 58.6 471.3 71.7 471.3 87.9V117.2H412.7ZM412.7 87.9M868.8 484.8C863.5 476.1 854 470.7 843.7 470.7 792.1 470.7 744.7 499.4 720.8 545.1L630.9 716.6C615.6 745.7 585.8 763.7 553 763.7H354.1C337.9 763.7 324.8 750.6 324.8 734.4S337.9 705.1 354.1 705.1H553C564 705.1 573.9 699.1 579 689.4 584.1 679.7 599.4 650.4 612.6 625.3 616.7 617.4 616.5 607.8 611.8 600.2 607.2 592.5 598.9 587.9 590 587.9H285.4C246.3 587.9 209.5 603.1 181.8 630.8L8.6 804.1C-2.9 815.5-2.9 834.1 8.6 845.5L155.1 991.4C160.8 997.1 168.3 1000 175.8 1000S190.8 997.1 196.5 991.4L307.6 880.9H553C629.5 880.9 699.2 838.7 734.7 771L869.6 513.6C874.4 504.5 874.1 493.6 868.8 484.8ZM868.8 484.8",
        "width": 1000
      },
      "search": [
        "shipping"
      ]
    },
    {
      "uid": "7e98afa49b5dde3f0a1979daacccd947",
      "css": "printer",
      "code": 59455,
      "src": "custom_icons",
      "selected": true,
      "svg": {
        "path": "M781.2 312.5H218.8C150 312.5 93.8 368.8 93.8 437.5V708.3H249.8V875H750.2V708.3H906.3V437.5C906.3 368.8 850 312.5 781.2 312.5ZM687.5 812.5H312.5V562.5H687.5V812.5ZM750.2 125H249.8V281.3H750.2V125Z",
        "width": 1000
      },
      "search": [
        "printer"
      ]
    },
    {
      "uid": "6fbbdc1b675e02735db2fe578e1549ea",
      "css": "happy",
      "code": 59435,
      "src": "custom_icons",
      "selected": true,
      "svg": {
        "path": "M500 0C223.9 0 0 223.9 0 500S223.9 1000 500 1000 1000 776.1 1000 500 776.1 0 500 0ZM667.1 321.9C709.5 321.9 744 356.4 744 398.9S709.5 475.8 667.1 475.8C624.6 475.8 590.1 441.4 590.1 398.9S624.6 321.9 667.1 321.9ZM332.9 321.9C375.4 321.9 409.9 356.4 409.9 398.9S375.4 475.8 332.9 475.8C290.5 475.8 256 441.4 256 398.9S290.5 321.9 332.9 321.9ZM500 813.2C369.4 813.2 251.3 730.8 206 608.1L267.9 585.3C303.6 682.2 396.9 747.3 500 747.3S696.4 682.2 732.1 585.3L794 608.1C748.7 730.8 630.6 813.2 500 813.2Z",
        "width": 1000
      },
      "search": [
        "happy"
      ]
    },
    {
      "uid": "0892c56342174730fd58d926df05cf6d",
      "css": "chevron-l",
      "code": 59415,
      "src": "custom_icons",
      "selected": true,
      "svg": {
        "path": "M479.4 500.3L791.6 188.2C807.4 172.3 815.3 153 815.3 130.1 815.3 107.1 807.4 87.8 791.6 71.9L743.4 23.8C727.6 7.9 708.2 0 685.3 0S643 7.9 627.2 23.8L208.4 441.9C192.6 457.7 184.7 477.1 184.7 500S192.6 542.3 208.4 558.1L627.2 976.2C643 992.1 662.4 1000 685.3 1000S727.6 992.1 743.4 976.2L791.6 928.1C807.4 912.2 815.3 893 815.3 870.3 815.3 847.6 807.4 828.1 791.6 811.8L479.4 500.3Z",
        "width": 1000
      },
      "search": [
        "chevron-l"
      ]
    },
    {
      "uid": "0a6ea13a282f3fc34c10f3e48184d08a",
      "css": "wifi",
      "code": 59395,
      "src": "custom_icons",
      "selected": true,
      "svg": {
        "path": "M500 187.5C340.8 187.5 181.6 253.1 67.4 360 60.9 365.8 60.7 375.8 66.8 382.2L118.9 436.7C125 443.2 135.2 443.4 141.6 437.3 187.1 395.1 239.1 361.5 296.5 337.7 360.9 310.7 429.5 297.3 500.2 297.3S639.5 310.9 703.9 337.7C761.3 361.7 813.3 395.1 858.8 437.3 865.2 443.4 875.4 443.2 881.4 436.7L933.6 382.2C939.6 376 939.5 366 933 360 818.4 253.1 659.2 187.5 500 187.5ZM221.1 542L277 597.3C283 603.1 292.6 603.5 298.8 597.9 354.1 548.8 425 521.9 499.8 521.9S645.5 548.6 700.8 597.9C707 603.5 716.6 603.1 722.7 597.3L778.5 542C785 535.5 784.8 525.2 777.9 519.1 704.7 452.9 606.8 412.5 499.6 412.5S294.5 452.9 221.3 519.1C214.8 525.2 214.6 535.5 221.1 542ZM500 633.2C454.3 633.2 412.9 652.3 384 683 378.1 689.3 378.3 698.8 384.4 704.9L488.7 807.8C494.9 814.1 505.1 814.1 511.3 807.8L615.6 704.9C621.7 698.8 621.9 689.3 616 683 587.1 652.5 545.7 633.2 500 633.2Z",
        "width": 1000
      },
      "search": [
        "wifi"
      ]
    },
    {
      "uid": "a73531ed6e6f09bf5c6dad9d0b5be39c",
      "css": "add-coin",
      "code": 59396,
      "src": "custom_icons",
      "selected": true,
      "svg": {
        "path": "M500 93.8C275.6 93.8 93.8 275.6 93.8 500S275.6 906.3 500 906.3 906.3 724.4 906.3 500 724.4 93.8 500 93.8ZM709 541H541V709H459V541H291V459H459V291H541V459H709V541Z",
        "width": 1000
      },
      "search": [
        "add-coin"
      ]
    },
    {
      "uid": "dad14ed70e223cefcb09da6d504b4d96",
      "css": "download",
      "code": 59416,
      "src": "custom_icons",
      "selected": true,
      "svg": {
        "path": "M812.5 389.6H634V125H366V389.6H187.5L500 698.4 812.5 389.6ZM187.5 786.7V875H812.5V786.7H187.5Z",
        "width": 1000
      },
      "search": [
        "download"
      ]
    },
    {
      "uid": "e2e540aeba3d9e06552ed80224221f36",
      "css": "hdots",
      "code": 59436,
      "src": "custom_icons",
      "selected": true,
      "svg": {
        "path": "M133.3 366.7C59.8 366.7 0 426.5 0 500S59.8 633.3 133.3 633.3 266.7 573.5 266.7 500 206.8 366.7 133.3 366.7ZM866.7 366.7C793.1 366.7 733.3 426.5 733.3 500S793.1 633.3 866.7 633.3 1000 573.5 1000 500 940.2 366.7 866.7 366.7ZM500 366.7C426.5 366.7 366.7 426.5 366.7 500S426.5 633.3 500 633.3 633.3 573.5 633.3 500 573.5 366.7 500 366.7Z",
        "width": 1000
      },
      "search": [
        "hdots"
      ]
    },
    {
      "uid": "4e6e4395299fc67bf8999c0a88117943",
      "css": "infinite",
      "code": 59456,
      "src": "custom_icons",
      "selected": true,
      "svg": {
        "path": "M849 367.2C812.3 332 763.5 312.5 711.3 312.5 659.4 312.5 610.5 331.8 573.8 367L539.5 398 604.1 460.7 637.3 430.7 637.5 430.5C657.2 411.7 683.4 401.2 711.1 401.2 738.9 401.2 765 411.5 784.8 430.3 804.3 449 814.8 473.8 814.8 500.2 814.8 526.6 804.1 551.2 784.8 569.7 765 588.5 738.9 599 711.1 599S657.2 588.7 637.5 569.9L426.2 367.2C389.3 332 340.4 312.5 288.7 312.5 236.5 312.5 187.7 331.8 151 367.2 114.1 402.5 93.8 449.6 93.8 500 93.8 550.2 114.1 597.5 151 632.8 187.7 668 236.5 687.5 288.7 687.5 340.8 687.5 389.6 668.2 426.2 632.8L500 562.3 573.6 632.8C610.5 668 659.4 687.5 711.1 687.5 763.3 687.5 812.1 668.2 848.6 633 885.7 597.7 906.1 550.6 906.1 500.2 906.3 449.8 885.9 402.5 849 367.2ZM362.3 569.7C342.6 588.5 316.4 599 288.7 599 260.9 599 234.8 588.7 215 569.9 195.5 551.2 185 526.4 185 500 185 473.6 195.7 449 215 430.5 234.8 411.7 260.9 401.2 288.7 401.2 316.4 401.2 342.6 411.5 362.3 430.3L435.4 500.2 362.3 569.7Z",
        "width": 1000
      },
      "search": [
        "infinite"
      ]
    },
    {
      "uid": "486cfee3b86c72a75c30c6028d4fa87e",
      "css": "store",
      "code": 59476,
      "src": "custom_icons",
      "selected": true,
      "svg": {
        "path": "M375 607.1C365.1 607.1 357.1 615.1 357.1 625V1000H607.1V625C607.1 615.1 599.1 607.1 589.3 607.1ZM428.6 821.4H392.9V785.7H428.6ZM428.6 821.4M875 1000C884.9 1000 892.9 992 892.9 982.1V459.8C882.5 462.5 871.9 464 861.2 464.3H858.3C805.9 464.3 757.6 435.7 732.5 389.8 707.6 435.6 659.7 464.1 607.5 464.3 555.4 464.4 507.3 436.1 482.1 390.4 457 436 409.2 464.3 357.1 464.3S257.2 436 232.1 390.4C200.9 447.7 134.5 476.2 71.4 459.6V982.1C71.4 992 79.4 1000 89.3 1000H321.4V625C321.4 595.4 345.4 571.4 375 571.4H589.3C618.9 571.4 642.9 595.4 642.9 625V1000ZM875 1000M965.2 317.9C964.6 299.2 959 281 949.1 265.1 948.2 263.6 947.5 261.9 947.1 260.2L898.2 89.3H67.9L18.9 260.4C18.1 263.1 16.6 265.6 14.7 267.6 5.1 283.9 0 302.5 0 321.4 0 380.6 48 428.6 107.1 428.6S214.3 380.6 214.3 321.4C214.3 311.6 222.3 303.6 232.1 303.6S250 311.6 250 321.4C250 380.6 298 428.6 357.1 428.6S464.3 380.6 464.3 321.4C464.3 311.6 472.3 303.6 482.1 303.6S500 311.6 500 321.4C500 380.6 548 428.6 607.1 428.6S714.3 380.6 714.3 321.4C714.3 311.6 722.3 303.6 732.1 303.6H732.6 733C742.9 303.6 750.9 311.6 750.9 321.4 750.9 350.3 762.5 377.9 783.2 398.1 803.8 418.2 831.7 429.2 860.5 428.6 875.2 428.3 889.6 424.7 902.8 418.3 941.5 399.9 965.9 360.7 965.2 317.9ZM965.2 317.9M142.9 53.6H821.4V17.9C821.4 8 813.4 0 803.6 0H160.7C150.9 0 142.9 8 142.9 17.9ZM142.9 53.6",
        "width": 1000
      },
      "search": [
        "store"
      ]
    },
    {
      "uid": "738c81e4316d5a0278c59eff575d6d22",
      "css": "sad",
      "code": 59477,
      "src": "custom_icons",
      "selected": true,
      "svg": {
        "path": "M853.6 146.4C759.1 52 633.6 0 500 0 366.4 0 240.9 52 146.4 146.4S0 366.4 0 500C0 633.6 52 759.1 146.4 853.6 240.9 948 366.4 1000 500 1000 633.6 1000 759.1 948 853.6 853.6 948 759.1 1000 633.6 1000 500 1000 366.4 948 240.9 853.6 146.4ZM622.3 296.5C663.6 296.5 697.2 330.1 697.2 371.4 697.2 412.7 663.6 446.3 622.3 446.3 581.1 446.3 547.5 412.7 547.5 371.4 547.5 330.1 581.1 296.5 622.3 296.5ZM377.7 296.5C418.9 296.5 452.5 330.1 452.5 371.4 452.5 412.7 418.9 446.3 377.7 446.3 336.4 446.3 302.8 412.7 302.8 371.4 302.8 330.1 336.4 296.5 377.7 296.5ZM711.7 704.4C694 714 671.8 707.3 662.3 689.5 632 633.1 573.7 596 510 592.6 445.7 589.2 383.4 620.2 347.4 673.5 343.9 678.7 340.6 684.1 337.7 689.5 328.2 707.3 306 714 288.3 704.4 270.5 694.9 263.8 672.7 273.3 655 277.4 647.4 282 639.8 286.8 632.6 334.6 561.9 415.5 519.3 500.4 519.3 504.9 519.3 509.4 519.4 513.9 519.7 602.9 524.4 684.4 576.3 726.7 655 736.2 672.7 729.5 694.9 711.7 704.4Z",
        "width": 1000
      },
      "search": [
        "sad"
      ]
    },
    {
      "uid": "a32013f3dd5265a57503fadf8cc7a023",
      "css": "refresh",
      "code": 59457,
      "src": "custom_icons",
      "selected": true,
      "svg": {
        "path": "M500 181.8V62.5L343.8 221.6 500 380.7V261.4C628.9 261.4 734.4 368.7 734.4 500 734.4 539.8 724.6 577.6 707 611.4L763.7 669C794.9 619.3 812.5 561.6 812.5 500 812.5 325 671.9 181.8 500 181.8ZM500 738.6C371.1 738.6 265.6 631.2 265.6 500 265.6 460.2 275.4 422.4 293 388.6L236.3 331C205.1 378.7 187.5 438.4 187.5 500 187.5 675 328.1 818.2 500 818.2V937.5L656.3 778.4 500 619.3V738.6Z",
        "width": 1000
      },
      "search": [
        "refresh"
      ]
    },
    {
      "uid": "45cc4719095f54f6aa691c127574420b",
      "css": "key",
      "code": 59437,
      "src": "custom_icons",
      "selected": true,
      "svg": {
        "path": "M486.7 437.5C459 359 379.1 296.9 291 296.9 179.3 296.9 93.8 388.3 93.8 500S183.2 703.1 294.9 703.1C383 703.1 459.2 641 486.7 562.5H687.5V687.5H822.5V562.5H906.3V437.5H486.7ZM296.1 567.4C259 567.4 228.7 537.1 228.7 500S259 432.6 296.1 432.6 363.5 462.9 363.5 500 333.2 567.4 296.1 567.4Z",
        "width": 1000
      },
      "search": [
        "key"
      ]
    },
    {
      "uid": "392a88b20dce4171639b6236a3452864",
      "css": "chevron-d",
      "code": 59417,
      "src": "custom_icons",
      "selected": true,
      "svg": {
        "path": "M976.2 256.7L928.1 208.6C911.4 192.8 892 184.9 869.7 184.9 847 184.9 827.8 192.8 811.9 208.6L500 520.5 188.1 208.6C172.2 192.8 153 184.9 130.3 184.9 108 184.9 88.6 192.8 71.9 208.6L24.4 256.7C8.1 273 0 292.5 0 315.2 0 338.3 8.1 357.5 24.4 372.9L442.2 790.8C457.6 807 476.9 815.1 500 815.1 522.7 815.1 542.2 807 558.4 790.8L976.2 372.9C992.1 357.1 1000 337.8 1000 315.2 1000 292.9 992.1 273.4 976.2 256.7Z",
        "width": 1000
      },
      "search": [
        "chevron-d"
      ]
    },
    {
      "uid": "4efb4162c173ff940b5684df0e9adad4",
      "css": "add-user",
      "code": 59397,
      "src": "custom_icons",
      "selected": true,
      "svg": {
        "path": "M593.8 500C696.9 500 781.3 415.6 781.3 312.5S696.9 125 593.8 125 406.3 209.4 406.3 312.5 490.6 500 593.8 500ZM593.8 593.8C469.5 593.8 218.8 657 218.8 781.3V875H968.8V781.3C968.8 657 718 593.8 593.8 593.8ZM218.8 437.5V312.5H156.3V437.5H31.3V500H156.3V625H218.8V500H343.8V437.5H218.8Z",
        "width": 1000
      },
      "search": [
        "add-user"
      ]
    },
    {
      "uid": "17c8b780b45442b573cbb089168a0b4c",
      "css": "alarm",
      "code": 59398,
      "src": "custom_icons",
      "selected": true,
      "svg": {
        "path": "M918 243.8L725.7 84.1 671.4 148.4 863.6 308.1 918 243.8ZM326.5 146.3L272.2 82 82 243.8 136.4 308.1 326.5 146.3ZM520.9 337.2H458.2V586.1L656.7 704.3 688.1 652.5 520.9 555V337.2ZM500 171.2C291 171.2 123.8 339.2 123.8 544.6 123.8 750 291 918 500 918 706.9 918 876.2 750 876.2 544.6 876.2 339.2 706.9 171.2 500 171.2ZM500 835C339.1 835 207.4 704.3 207.4 544.6 207.4 384.9 339.1 254.2 500 254.2 660.9 254.2 792.6 384.9 792.6 544.6 792.6 706.4 660.9 835 500 835Z",
        "width": 1000
      },
      "search": [
        "alarm"
      ]
    },
    {
      "uid": "b90bb318c2b14bc3c294fcb368311de1",
      "css": "clock",
      "code": 59418,
      "src": "custom_icons",
      "selected": true,
      "svg": {
        "path": "M500 0C223.9 0 0 223.9 0 500S223.9 1000 500 1000 1000 776.1 1000 500 776.1 0 500 0ZM643.3 731.7L437.5 525.9V250H562.5V474.1L731.7 643.3 643.3 731.7Z",
        "width": 1000
      },
      "search": [
        "clock"
      ]
    },
    {
      "uid": "56f82561702274b6bdb4b0ed01c90c3c",
      "css": "google-plus",
      "code": 59438,
      "src": "custom_icons",
      "selected": true,
      "svg": {
        "path": "M324.2 117.2C391.9 117.2 453.2 151.9 488.3 199.8L571.5 116C521.7 51.3 425.9 0 324.2 0 146.1 0 0 144.1 0 322.3S146.1 644.5 324.2 644.5C471.9 644.5 596.1 545.5 634.2 410.2 642.4 382 646.5 352.7 646.5 322.3V293H353.5V410.1H508.8C476.6 479.3 405.7 527.3 324.2 527.3 211.1 527.3 117.2 435.3 117.2 322.3S211.1 117.2 324.2 117.2ZM324.2 117.2M910.2 175.8H793V263.7H705.1V380.9H793V468.8H910.2V380.9H1000V263.7H910.2ZM910.2 175.8",
        "width": 1000
      },
      "search": [
        "google-plus"
      ]
    },
    {
      "uid": "b7a75282085f872dcadf11eecb2e22a5",
      "css": "info",
      "code": 59458,
      "src": "custom_icons",
      "selected": true,
      "svg": {
        "path": "M409.1 227.3H590.9C603.2 227.3 613.9 222.8 622.9 213.8 631.9 204.8 636.4 194.1 636.4 181.8V45.5C636.4 33.1 631.9 22.5 622.9 13.5 613.9 4.5 603.2 0 590.9 0H409.1C396.8 0 386.1 4.5 377.1 13.5 368.1 22.5 363.6 33.1 363.6 45.5V181.8C363.6 194.1 368.1 204.8 377.1 213.8 386.1 222.8 396.8 227.3 409.1 227.3ZM713.8 831.7C704.8 822.7 694.1 818.2 681.8 818.2H636.4V409.1C636.4 396.8 631.9 386.1 622.9 377.1 613.9 368.1 603.2 363.6 590.9 363.6H318.2C305.9 363.6 295.2 368.1 286.2 377.1 277.2 386.1 272.7 396.8 272.7 409.1V500C272.7 512.3 277.2 523 286.2 532 295.2 541 305.9 545.5 318.2 545.5H363.6V818.2H318.2C305.9 818.2 295.2 822.7 286.2 831.7 277.2 840.7 272.7 851.3 272.7 863.6V954.5C272.7 966.9 277.2 977.5 286.2 986.5 295.2 995.5 305.9 1000 318.2 1000H681.8C694.1 1000 704.8 995.5 713.8 986.5 722.8 977.5 727.3 966.9 727.3 954.5V863.6C727.3 851.3 722.8 840.7 713.8 831.7Z",
        "width": 1000
      },
      "search": [
        "info"
      ]
    },
    {
      "uid": "8abf4d5f035842efdfad460069562de9",
      "css": "rows",
      "code": 59478,
      "src": "custom_icons",
      "selected": true,
      "svg": {
        "path": "M967.7 18.9H32.3C14.5 18.9 0 33.4 0 51.2V194.8C0 212.6 14.5 227.1 32.3 227.1H967.7C985.5 227.1 1000 212.6 1000 194.8V51.2C1000 33.4 985.5 18.9 967.7 18.9ZM967.7 395.9H32.3C14.5 395.9 0 410.4 0 428.2V571.8C0 589.6 14.5 604.1 32.3 604.1H967.7C985.5 604.1 1000 589.6 1000 571.8V428.2C1000 410.4 985.5 395.9 967.7 395.9ZM967.7 772.9H32.3C14.5 772.9 0 787.4 0 805.2V948.8C0 966.7 14.5 981.2 32.3 981.2H967.7C985.5 981.2 1000 966.7 1000 948.8V805.2C1000 787.4 985.5 772.9 967.7 772.9Z",
        "width": 1000
      },
      "search": [
        "rows"
      ]
    },
    {
      "uid": "5ad9277a35ab16b10da38ae5dbbb3afb",
      "css": "order",
      "code": 59459,
      "src": "custom_icons",
      "selected": true,
      "svg": {
        "path": "M181.8 409.1H818.2C830.5 409.1 841.1 404.6 850.1 395.6 859.1 386.6 863.6 375.9 863.6 363.6 863.6 351.3 859.1 340.7 850.1 331.7L532 13.5C523 4.5 512.3 0 500 0S477 4.5 468 13.5L149.9 331.7C140.9 340.7 136.4 351.3 136.4 363.6 136.4 375.9 140.9 386.6 149.9 395.6 158.9 404.6 169.5 409.1 181.8 409.1ZM818.2 590.9H181.8C169.5 590.9 158.9 595.4 149.9 604.4 140.9 613.4 136.4 624.1 136.4 636.4 136.4 648.7 140.9 659.3 149.9 668.3L468 986.5C477 995.5 487.7 1000 500 1000S523 995.5 532 986.5L850.1 668.3C859.1 659.3 863.6 648.7 863.6 636.4 863.6 624.1 859.1 613.4 850.1 604.4 841.1 595.4 830.5 590.9 818.2 590.9Z",
        "width": 1000
      },
      "search": [
        "order"
      ]
    },
    {
      "uid": "183378773a0b040a7e1e856b0fc6fed3",
      "css": "list",
      "code": 59439,
      "src": "custom_icons",
      "selected": true,
      "svg": {
        "path": "M994.6 160.1C989 150.8 979.8 144.2 969.1 142L402.7 5.5C384 1.9 365.6 12.2 359.1 30L143.2 578.5 215.3 604.8 419.9 83.2 912.1 208.8C881.3 304.1 808.2 503 738.1 688.2 676.9 849.8 641.8 905.1 574.9 916.4 574.8 916.3 574.8 916.2 574.8 916.1 438.1 935.3 440.6 761.1 440.6 761.1L4.2 584.8C-26.8 781.4 124.2 828.7 124.2 828.7L443.7 973.7C443.8 973.7 493.7 997.5 547.9 995.1 694.1 991.6 745.5 885.5 809.8 715.4 902.9 469.5 997.3 194.1 998.2 191.2 1001.5 180.8 1000.2 169.5 994.6 160.1ZM736.4 381.3C739.8 382.3 743.2 382.7 746.6 382.7 763.4 382.7 778.8 371.5 783.6 354.5 789.2 334 777.1 312.9 756.6 307.4L590.4 256C570.2 250.4 548.8 262.5 543.3 282.9 537.7 303.3 549.7 324.5 570.2 330.1L736.4 381.3ZM476.7 436.6C470 456.7 480.8 478.4 500.9 485.1L666.3 544.2C670.3 545.5 674.3 546.1 678.2 546.2 694.4 546.2 709.5 536.1 714.9 520 721.5 499.9 710.7 478.2 690.6 471.4L525.3 412.4C505.1 405.7 483.4 416.5 476.7 436.6ZM462.1 572.5C442 565.8 420.3 576.8 413.7 597 407.1 617 418.1 638.7 438.2 645.3L604 704.2C608 705.5 611.9 706.1 616 706.1 632.1 706.1 647.1 695.9 652.4 679.8 659 659.6 648 637.9 627.9 631.3L462.1 572.5ZM456 211.3C479.5 211.3 498.5 229.8 498.5 252.7 498.5 275.5 479.5 294 456 294 432.5 294 413.4 275.5 413.4 252.7 413.4 229.8 432.5 211.3 456 211.3ZM395.8 365.1C419.3 365.1 438.4 383.6 438.4 406.4 438.4 429.2 419.3 447.7 395.8 447.7 372.3 447.7 353.2 429.2 353.2 406.4 353.2 383.6 372.3 365.1 395.8 365.1ZM331.6 523.7C355.1 523.7 374.2 542.2 374.2 565.1 374.2 587.9 355.1 606.4 331.6 606.4 308.1 606.4 289.1 587.9 289.1 565.1 289.1 542.2 308.1 523.7 331.6 523.7Z",
        "width": 1000
      },
      "search": [
        "list"
      ]
    },
    {
      "uid": "3847e7aab7ec3592d57eda74c5a39b2d",
      "css": "filter",
      "code": 59419,
      "src": "custom_icons",
      "selected": true,
      "svg": {
        "path": "M93.8 170.3C93.8 181.6 97.7 192.6 104.7 201L402 552.1C409 560.5 412.9 571.5 412.9 582.8V791.8C412.9 811.3 424.4 828.5 441.4 834.8L548.8 873.4C567.6 880.3 587.1 865 587.1 843.6V582.6C587.1 571.3 591 560.4 598 552L895.3 200.8C902.3 192.4 906.3 181.4 906.3 170.1 906.3 145.1 887.5 124.8 864.5 124.8H135.5C112.5 125 93.8 145.3 93.8 170.3Z",
        "width": 1000
      },
      "search": [
        "filter"
      ]
    },
    {
      "uid": "b631637cf67a2f39e88a868bcec87b72",
      "css": "apps",
      "code": 59399,
      "src": "custom_icons",
      "selected": true,
      "svg": {
        "path": "M187.5 343.8H343.8V187.5H187.5V343.8ZM421.9 812.5H578.1V656.3H421.9V812.5ZM187.5 812.5H343.8V656.3H187.5V812.5ZM187.5 578.1H343.8V421.9H187.5V578.1ZM421.9 578.1H578.1V421.9H421.9V578.1ZM656.3 187.5V343.8H812.5V187.5H656.3ZM421.9 343.8H578.1V187.5H421.9V343.8ZM656.3 578.1H812.5V421.9H656.3V578.1ZM656.3 812.5H812.5V656.3H656.3V812.5Z",
        "width": 1000
      },
      "search": [
        "apps"
      ]
    },
    {
      "uid": "93aece2054fa29480637fa67cc748762",
      "css": "arrow-d",
      "code": 59400,
      "src": "custom_icons",
      "selected": true,
      "svg": {
        "path": "M541.7 166V673.3L775.5 439.5 834 500 500 834 166 500 224.5 441.6 458.3 673.3V166H541.7Z",
        "width": 1000
      },
      "search": [
        "arrow-d"
      ]
    },
    {
      "uid": "16465dbbf2c9717d29693af3187cf84b",
      "css": "day",
      "code": 59420,
      "src": "custom_icons",
      "selected": true,
      "svg": {
        "path": "M809.4 126.2V24.6C809.4 11.1 817.2 0 826.7 0S844.2 11.1 844.2 24.6V126.2C844.2 139.8 836.3 150.9 826.7 150.9 817.2 150.9 809.4 139.8 809.4 126.2ZM492.2 150.9C501.8 150.9 509.6 139.8 509.6 126.2V24.6C509.6 11.1 501.8 0 492.2 0S474.9 11.1 474.9 24.6V126.2C474.9 139.8 482.7 150.9 492.2 150.9ZM166.4 150.9C176 150.9 183.7 139.8 183.7 126.2V24.6C183.7 11.1 176 0 166.4 0S149 11.1 149 24.6V126.2C149 139.8 156.8 150.9 166.4 150.9ZM987.6 239.4H986.4C987 243.4 987.6 247.5 987.6 251.8V924.4C987.6 965.9 954.3 1000 913.7 1000H86.3C45.6 1000 12.4 965.9 12.4 924.4V251.8C12.4 247.5 12.9 243.4 13.6 239.4H12.4V143.1C12.4 100 45.6 64.8 86.3 64.8H128.5V126.2C128.5 151.4 145.1 171.2 166.3 171.2 187.5 171.2 204.1 151.4 204.1 126.2V64.8H454.5V126.2C454.5 151.4 471.1 171.2 492.2 171.2 513.3 171.2 530 151.4 530 126.2V64.8H789V126.2C789 151.4 805.6 171.2 826.7 171.2 847.9 171.2 864.5 151.4 864.5 126.2V64.8H913.7C954.3 64.8 987.6 100 987.6 143.1V239.4ZM921.2 871.8L921.2 258.3C921.2 251.7 920 245.4 918.4 239.4H72.5C70.9 245.5 69.8 251.7 69.8 258.3V871.8C69.8 909.8 98.8 940.9 134.3 940.9H856.6C892.2 940.9 921.2 909.8 921.2 871.8ZM145.3 428.5L163.5 511.5 253.7 468.6H255.3V843.5H362.2V370.2H271.3L145.3 428.5ZM675.7 751.1H675.6L719.3 714.6C788.5 653.5 845.3 590.1 845.3 510.1 845.3 424.9 787 362.2 679.3 362.2 615.9 362.2 559.9 384.1 524.9 411L556.2 489.6C581 471.4 616.7 451.1 657.4 451.1 712 451.1 734.6 481.6 734.6 520.2 733.9 575.5 683.7 628.7 579.5 721.9L519.1 776.5V843.5H854.8V752.4H675.7C675.8 752.4 675.8 751.1 675.7 751.1Z",
        "width": 1000
      },
      "search": [
        "day"
      ]
    },
    {
      "uid": "899f5797e13879459f631c5acc3cc60d",
      "css": "locked",
      "code": 59440,
      "src": "custom_icons",
      "selected": true,
      "svg": {
        "path": "M824.7 368.4H807.5V307.5C807.5 137.9 669.6 0 500 0 330.5 0 192.5 137.9 192.5 307.5V368.4H175.3C163.5 368.4 153.9 378.1 153.9 389.9V978.6C153.9 990.4 163.5 1000 175.3 1000H824.7C836.5 1000 846.1 990.4 846.1 978.6V389.9C846.1 378.1 836.5 368.4 824.7 368.4ZM275.6 307.5C275.6 183.8 376.3 83.1 500 83.1S724.4 183.8 724.4 307.5V368.4H275.6V307.5ZM554.4 714.7C554.4 728.2 554.4 804.6 554.4 804.6 554.4 834.6 530.1 859 500 859 469.9 859 445.6 834.6 445.6 804.6 445.6 804.6 445.6 728.2 445.6 714.7 445.6 685.8 390.2 687.6 390.2 619.3 390.2 558.6 439.3 509.5 500 509.5S609.8 558.6 609.8 619.3C609.8 687.6 554.4 685.8 554.4 714.7Z",
        "width": 1000
      },
      "search": [
        "locked"
      ]
    },
    {
      "uid": "750fdf3ab2114d887ac753f5abbc01b0",
      "css": "money",
      "code": 59460,
      "src": "custom_icons",
      "selected": true,
      "svg": {
        "path": "M753 516.3C723.2 493.2 678.5 474.3 618.9 459.3L572.2 449.2V252C573.5 253.4 574.9 254.1 576.2 254.1S578.3 254.7 578.3 256.1C617.5 275.1 638.6 307.6 641.3 353.7H797.8C795.1 272.4 764.6 210 706.3 166.7 668.4 138.2 623.6 119.2 572.2 109.8V0H427.8V105.7C360.1 113.8 306.6 135.5 267.3 170.7 215.8 216.8 190 275.1 190 345.5 190 421.4 216.5 477.6 269.3 514.2 297.8 534.6 350.6 553.5 427.8 571.1V782.5C399.4 774.4 377.7 761.5 362.8 743.9 346.5 724.9 336.4 699.2 332.3 666.7H177.8C177.8 746.6 207 809.6 265.2 855.7 307.3 888.2 361.4 909.2 427.8 918.7V1000H572.2V920.7C642.6 911.2 698.8 888.9 740.9 853.7 795.1 806.2 822.2 746.6 822.2 674.8 822.2 605.7 799.1 552.8 753 516.3ZM427.8 414.6C404.8 407.9 388.6 401.8 379.1 396.3 353.3 382.8 340.4 361.8 340.4 333.3 340.4 302.2 353.3 278.5 379.1 262.2 392.6 254.1 408.9 247.3 427.8 241.9V414.6ZM596.5 778.5C589.8 781.2 581.6 783.2 572.2 784.6V603.7C597.9 611.8 617.5 619.9 631.1 628 654.1 643 665.7 663.3 665.7 689 665.7 732.4 642.6 762.2 596.5 778.5Z",
        "width": 1000
      },
      "search": [
        "money"
      ]
    },
    {
      "uid": "b4813fe1d7c07c96c4f18b757010529f",
      "css": "time",
      "code": 59480,
      "src": "custom_icons",
      "selected": true,
      "svg": {
        "path": "M933 249C888.2 172.4 827.6 111.8 751 67.1 674.4 22.3 590.7 0 500 0 409.3 0 325.6 22.3 249 67.1 172.4 111.8 111.8 172.4 67.1 249 22.3 325.6 0 409.3 0 500 0 590.7 22.4 674.4 67.1 751 111.8 827.6 172.4 888.2 249 932.9 325.6 977.7 409.3 1000 500 1000S674.4 977.7 751 932.9C827.6 888.2 888.2 827.6 932.9 751 977.7 674.4 1000 590.7 1000 500 1000 409.3 977.7 325.6 933 249ZM806.6 677.7C775 732 732 775 677.7 806.6 623.5 838.3 564.3 854.2 500 854.2 435.8 854.2 376.5 838.3 322.3 806.6 268 775 225.1 732 193.4 677.7 161.7 623.5 145.8 564.2 145.8 500 145.8 435.8 161.7 376.5 193.4 322.3 225 268 268 225 322.3 193.4 376.5 161.7 435.8 145.8 500 145.8 564.3 145.8 623.5 161.7 677.7 193.4 732 225 775 268 806.6 322.3 838.3 376.5 854.2 435.8 854.2 500 854.2 564.2 838.3 623.5 806.6 677.7ZM562.5 250H520.8C514.8 250 509.8 252 505.9 255.9 502 259.8 500 264.7 500 270.8V500H354.2C348.1 500 343.1 501.9 339.2 505.8 335.3 509.7 333.3 514.7 333.3 520.8V562.5C333.3 568.6 335.3 573.6 339.2 577.5 343.1 581.4 348.1 583.3 354.2 583.3H562.5C568.6 583.3 573.6 581.4 577.5 577.5 581.4 573.6 583.4 568.6 583.4 562.5V270.8C583.4 264.8 581.4 259.8 577.5 255.9 573.6 252 568.6 250 562.5 250Z",
        "width": 1000
      },
      "search": [
        "time"
      ]
    },
    {
      "uid": "2f41e3bc9cc969f8b57162ee127d20a5",
      "css": "unlocked",
      "code": 59481,
      "src": "custom_icons",
      "selected": true,
      "svg": {
        "path": "M812.5 500H333.3V291.7C333.3 245.7 349.6 206.4 382.2 173.8 414.7 141.3 454 125 500 125 546 125 585.3 141.3 617.8 173.8 650.4 206.4 666.7 245.7 666.7 291.7 666.7 303 670.8 312.7 679 321 687.3 329.2 697 333.3 708.3 333.3H750C761.3 333.3 771 329.2 779.3 321 787.5 312.7 791.7 302.9 791.7 291.7 791.7 211.4 763.1 142.7 706 85.6 649 28.5 580.3 0 500 0 419.7 0 351 28.5 293.9 85.6 236.9 142.7 208.3 211.4 208.3 291.7V500H187.5C170.1 500 155.4 506.1 143.2 518.2 131.1 530.4 125 545.1 125 562.5V937.5C125 954.9 131.1 969.6 143.2 981.8 155.4 993.9 170.1 1000 187.5 1000H812.5C829.8 1000 844.6 993.9 856.8 981.8 868.9 969.6 875 954.9 875 937.5V562.5C875 545.1 868.9 530.4 856.8 518.2 844.6 506.1 829.8 500 812.5 500ZM548.9 760.1V882.4C548.9 907 529 927 504.3 927H495.7C471 927 451.1 907 451.1 882.4V760.1C424.9 743.8 407.4 714.7 407.4 681.6 407.4 630.4 448.9 589 500 589S592.6 630.4 592.6 681.6C592.6 714.8 575.1 743.8 548.9 760.1Z",
        "width": 1000
      },
      "search": [
        "unlocked"
      ]
    },
    {
      "uid": "f6376b80d689ffc33a68ddee9eae43c0",
      "css": "thumbs-up-o",
      "code": 59482,
      "src": "custom_icons",
      "selected": true,
      "svg": {
        "path": "M214.9 644.1Q214.9 629.6 204.3 619 193.7 608.4 179.2 608.4 164.7 608.4 154.1 619 143.5 629.6 143.5 644.1 143.5 658.6 154.1 669.2 164.7 679.8 179.2 679.8 193.7 679.8 204.3 669.2 214.9 658.6 214.9 644.1ZM857.7 322.6Q857.7 294.2 836 272.7 814.2 251.2 786.3 251.2H589.9Q589.9 218.8 616.7 162.2 643.5 105.6 643.5 72.6 643.5 18 625.6-8.3 607.7-34.5 554.2-34.5 539.7-20 533 12.9 526.3 45.9 516 83 505.6 120.1 482.7 144.1 470.5 156.9 439.8 194.8 437.5 197.6 426.9 211.6 416.3 225.5 409.4 234.5 402.4 243.4 390.1 258.2 377.8 273 367.8 282.7 357.7 292.5 346.3 302.5 334.9 312.6 324 317.6 313.1 322.6 304.2 322.6H286.3V679.8H304.2Q311.4 679.8 321.8 681.5 332.1 683.1 340.2 685.1 348.3 687 361.4 691.2 374.5 695.4 380.9 697.6 387.3 699.9 400.7 704.6 414.1 709.4 416.9 710.5 534.6 751.2 607.7 751.2H675.3Q782.4 751.2 782.4 658 782.4 643.5 779.6 626.8 796.4 617.8 806.1 597.5 815.9 577.1 815.9 556.5 815.9 535.8 805.9 518 835.4 490 835.4 451.5 835.4 437.6 829.8 420.6 824.3 403.6 815.9 394.1 833.8 393.5 845.8 367.8 857.7 342.2 857.7 322.6ZM929.2 322.1Q929.2 371.7 901.8 413 906.9 431.5 906.9 451.5 906.9 494.5 885.6 531.9 887.3 543.6 887.3 555.9 887.3 612.3 853.8 655.2 854.4 732.8 806.4 777.7 758.4 822.6 679.7 822.6H659.6 607.7Q554.2 822.6 502 810.1 449.8 797.5 381.2 773.5 316.5 751.2 304.2 751.2H143.5Q113.9 751.2 93 730.3 72 709.4 72 679.8V322.6Q72 293.1 93 272.1 113.9 251.2 143.5 251.2H296.4Q316.5 237.8 372.8 164.7 405.2 122.9 432.5 93.3 445.9 79.3 452.3 45.6 458.8 11.8 469.4-25 480-61.8 504-85.3 525.7-105.9 554.2-105.9 601.1-105.9 638.4-87.8 675.8-69.7 695.4-31.2 714.9 7.3 714.9 72.6 714.9 124.5 688.1 179.8H786.3Q844.4 179.8 886.8 222.2 929.2 264.6 929.2 322.1Z",
        "width": 1000
      },
      "search": [
        "thumbs-up-o"
      ]
    },
    {
      "uid": "38f3c0e9428ad7efe836032db9dea840",
      "css": "thumbs-up",
      "code": 59483,
      "src": "custom_icons",
      "selected": true,
      "svg": {
        "path": "M168.5 773C168.5 762.4 164.6 753.3 156.9 745.6 149.2 737.9 140.1 734 129.5 734 118.5 734 109.3 737.9 101.8 745.6 94.3 753.3 90.5 762.4 90.5 773 90.5 784 94.3 793.2 101.8 800.7 109.3 808.2 118.5 812 129.5 812 140.1 812 149.2 808.2 156.9 800.7S168.5 784 168.5 773ZM266 461V851C266 861.6 262.1 870.7 254.4 878.4S237.6 890 227 890H51.5C40.9 890 31.8 886.1 24.1 878.4 16.4 870.7 12.5 861.6 12.5 851V461C12.5 450.4 16.4 441.3 24.1 433.6 31.8 425.9 40.9 422 51.5 422H227C237.6 422 246.7 425.9 254.4 433.6 262.1 441.3 266 450.4 266 461ZM987.5 461C987.5 495.9 976.3 526.2 954 551.8 960.1 569.7 963.1 585.1 963.1 598.1 964.3 629 955.6 656.8 936.9 681.6 943.8 704.3 943.8 728.1 936.9 752.9 930.8 776 919.9 795.1 904 810.2 907.7 855.7 897.7 892.4 874.2 920.5 848.2 951.3 808.1 967.2 754.1 968H675.5C648.7 968 619.4 964.9 587.8 958.5 556.1 952.2 531.4 946.4 513.7 940.9 496 935.4 471.6 927.4 440.3 916.8 390.3 899.3 358.2 890.4 344 890 333.4 889.6 324.3 885.6 316.6 878.1 308.9 870.6 305 861.6 305 851V460.4C305 450.2 308.7 441.4 316 433.9 323.3 426.4 332 422.2 342.2 421.4 351.9 420.6 367.4 408.6 388.5 385.4 409.6 362.3 430.1 337.7 450 311.7 477.7 276.4 498.2 252 511.6 238.6 518.9 231.3 525.2 221.5 530.5 209.3S539.3 187.3 541.1 179.8C543 172.3 545.7 160 549.4 142.9 552.2 127.1 554.7 114.7 557 105.7 559.2 96.8 563.2 86.2 568.9 74 574.5 61.9 581.5 51.7 589.6 43.6 597.3 35.9 606.4 32 617 32 635.7 32 652.4 34.1 667.3 38.4 682.1 42.7 694.3 47.9 703.8 54.2 713.4 60.5 721.5 68.8 728.2 78.9 734.9 89.1 739.8 98.2 742.8 106.3 745.9 114.5 748.3 124.6 750.2 136.8 752 149 753 158.1 753.2 164.2 753.4 170.3 753.5 178.2 753.5 188 753.5 203.4 751.6 218.9 747.7 234.3 743.9 249.7 740 261.9 736.1 270.9 732.3 279.8 726.7 291.2 719.4 305 718.2 307.4 716.1 311.1 713.3 316 710.4 320.8 708.2 325.3 706.6 329.4 705 333.4 703.3 338.3 701.7 344H870.5C902.2 344 929.6 355.6 952.8 378.7 975.9 401.9 987.5 429.3 987.5 461Z",
        "width": 1000
      },
      "search": [
        "thumbs-up"
      ]
    },
    {
      "uid": "163b60ac576a10a5b39c6262f372f10c",
      "css": "trash",
      "code": 59484,
      "src": "custom_icons",
      "selected": true,
      "svg": {
        "path": "M621.8 127.8V0H378.2V127.8H70.6V306.6H929.4V127.8H621.8ZM563.2 127.8H436.8V58.6H563.2V127.8ZM130.2 365.2L191.9 1000H808.1L869.8 365.2H130.2ZM331.4 862.3L313.9 488.9H372.5L390 862.3H331.4ZM529.3 862.3H470.7V488.9H529.3V862.3ZM668.6 862.3H610L627.5 488.9H686.1L668.6 862.3Z",
        "width": 1000
      },
      "search": [
        "trash"
      ]
    },
    {
      "uid": "3136ae8d6f55e3e8b917c4d2b9b7f986",
      "css": "rocket",
      "code": 59471,
      "src": "custom_icons",
      "selected": true,
      "svg": {
        "path": "M902 104.7C901.2 101.4 898.8 98.8 895.5 98 789.3 72.1 543.8 164.6 410.7 297.7 384.8 323.6 363.5 349.2 346.1 374 305.1 370.3 264.1 373.4 229.1 388.7 130.5 432 101.8 545.3 93.8 593.9 91.8 605.5 101.4 615.4 112.9 614.3L271.3 596.9C271.5 612.1 272.5 624.2 273.4 632.6 274.2 640.8 277.9 648.4 283.8 654.3L345.1 715.6C351 721.5 358.6 725.2 366.8 726 375.2 727 387.3 727.9 402.3 728.1L385 886.3C383.8 897.9 393.8 907.4 405.3 905.5 453.9 897.7 567.4 868.9 610.5 770.3 625.8 735.4 628.9 694.5 625.4 653.7 650.2 636.3 676 615 702 589.1 835.5 456.3 927.5 216.2 902 104.7ZM583.2 417C550.6 384.4 550.6 331.6 583.2 299 615.8 266.4 668.6 266.4 701.2 299 733.8 331.6 733.8 384.4 701.2 417 668.6 449.6 615.8 449.6 583.2 417ZM340.8 743.2C332.6 751.4 318 756.1 302.1 758.8 266.6 764.8 235.5 733.8 241.6 698.2 244.3 682.4 248.8 667.8 257 659.8L257.2 659.6C261.7 655.1 258 647.7 251.8 648.4 232.6 650.8 213.9 659.4 199.2 674 164.1 709.2 160.7 839.6 160.7 839.6S291.4 836.3 326.6 801.2C341.4 786.3 349.8 767.8 352.1 748.6 352.7 742.4 345.1 738.7 340.8 743.2Z",
        "width": 1000
      },
      "search": [
        "rocket"
      ]
    },
    {
      "uid": "4577496d3dbaad6e5133ee8fbdf9ee08",
      "css": "phone",
      "code": 59451,
      "src": "custom_icons",
      "selected": true,
      "svg": {
        "path": "M853.3 712.5C824.6 683.8 755.7 640.6 721.7 624.4 682.2 605.5 667.8 605.9 639.8 626 616.6 642.8 601.6 658.4 574.8 652.5 548 646.9 495.3 606.8 444.1 555.9 393 504.7 353.1 452 347.5 425.2 341.8 398.2 357.4 383.4 374 360.2 394.1 332.2 394.7 317.8 375.6 278.3 359.4 244.1 316.4 175.4 287.5 146.7 258.8 118 252.3 124.2 236.5 129.9 236.5 129.9 213.1 139.3 189.8 154.7 161.1 173.8 145.1 189.8 133.8 213.9 122.7 237.9 109.8 282.6 175.4 399.4 228.3 493.8 280.3 565.2 357.4 642.2L357.6 642.4 357.8 642.6C435 719.7 506.3 771.7 600.6 824.6 717.4 890.2 762.1 877.3 786.1 866.2 810.2 855.1 826.2 839.1 845.3 810.2 860.7 786.9 870.1 763.5 870.1 763.5 875.8 747.7 882.2 741.2 853.3 712.5Z",
        "width": 1000
      },
      "search": [
        "phone"
      ]
    },
    {
      "uid": "f81740770e27861f20f4dc9f3c637f6a",
      "css": "gear",
      "code": 59431,
      "src": "custom_icons",
      "selected": true,
      "svg": {
        "path": "M948.5 388.9H855C839.9 388.9 827.5 380.6 821.8 366.7S818.9 338.2 829.6 327.6L895.7 261.4C905.4 251.7 910.8 238.8 910.8 225 910.8 211.3 905.4 198.4 895.7 188.6L811.4 104.3C791.9 84.9 758 84.8 738.6 104.3L672.4 170.4C663.6 179.2 654 181.1 647.4 181.1 638.1 181.1 628.9 177.4 622.1 171.1 617.1 166.4 611.1 158 611.1 145V51.5C611.1 23.1 588 0 559.6 0H440.4C412 0 388.9 23.1 388.9 51.5V145C388.9 167.6 370.4 181.1 352.6 181.1 346 181.1 336.4 179.2 327.6 170.4L261.4 104.3C241.9 84.8 208 84.9 188.6 104.3L104.3 188.6C94.6 198.3 89.2 211.3 89.2 225 89.2 238.8 94.6 251.7 104.3 261.4L170.4 327.6C181 338.2 183.9 352.8 178.2 366.7S160.1 388.9 145 388.9H51.5C23.1 388.9 0 412 0 440.4V559.6C0 588 23.1 611.1 51.5 611.1H145C160.1 611.1 172.5 619.4 178.2 633.3S181.1 661.8 170.4 672.4L104.3 738.6C94.6 748.3 89.2 761.2 89.2 775 89.2 788.7 94.6 801.6 104.3 811.4L188.6 895.7C208.1 915.2 242 915.2 261.4 895.7L327.6 829.6C336.4 820.8 346 818.9 352.6 818.9 370.4 818.9 388.9 832.4 388.9 855V948.5C388.9 976.9 412 1000 440.4 1000H559.6C588 1000 611.1 976.9 611.1 948.5V855C611.1 832.4 629.6 818.9 647.4 818.9 653.9 818.9 663.6 820.8 672.4 829.6L738.6 895.7C758 915.2 791.9 915.1 811.4 895.7L895.7 811.4C905.4 801.7 910.8 788.7 910.8 775 910.8 761.2 905.4 748.3 895.7 738.6L829.6 672.4C818.9 661.8 816 647.2 821.8 633.3S839.9 611.1 855 611.1H948.5C976.9 611.1 1000 588 1000 559.6V440.4C1000 412 976.9 388.9 948.5 388.9ZM629.6 500C629.6 571.5 571.5 629.6 500 629.6S370.4 571.5 370.4 500 428.5 370.4 500 370.4 629.6 428.5 629.6 500Z",
        "width": 1000
      },
      "search": [
        "gear"
      ]
    },
    {
      "uid": "045ef90041102763ff5af680aff3c67b",
      "css": "check",
      "code": 59410,
      "src": "custom_icons",
      "selected": true,
      "svg": {
        "path": "M867.8 124.6L1000 256.8 381.4 875.4 0 494.1 132.2 361.8 381.4 610.9 867.8 124.6Z",
        "width": 1000
      },
      "search": [
        "check"
      ]
    },
    {
      "uid": "86696f394c9b1c717f400e5fcc06c5be",
      "css": "chatboxes",
      "code": 59409,
      "src": "custom_icons",
      "selected": true,
      "svg": {
        "path": "M831.8 332.8H399C358 332.8 324.6 366.2 324.6 407.2V708.6C324.6 749.6 358 782.8 399 782.8H646.7C652.1 782.8 657.6 785.2 661.5 789.1L784.6 902.5C791.4 909.2 802.7 906.4 802.7 896.9V798C802.7 786.3 810.2 782.6 821.9 782.6H823.8C864.8 782.6 906.1 749.6 906.1 708.4V407.2C906.3 366 872.9 332.8 831.8 332.8ZM340.6 285H687.1V157.4C687.1 122.3 658.6 93.7 623.4 93.7H157.4C122.3 93.8 93.8 122.3 93.8 157.4V480.1C93.8 515.2 122.3 543.8 157.4 543.8H276.8V348.6C277 313.5 305.5 285 340.6 285Z",
        "width": 1000
      },
      "search": [
        "chatboxes"
      ]
    },
    {
      "uid": "afc09365206b2ae834c823c78b30bff9",
      "css": "chat",
      "code": 59408,
      "src": "custom_icons",
      "selected": true,
      "svg": {
        "path": "M500 125C275.6 125 93.8 271.9 93.8 453.1 93.8 579.9 182.8 689.8 313.1 744.5 302.9 794.9 272.1 836.3 247.7 862.7 243.2 867.6 248 875.4 254.7 875 277.1 873.4 318.9 866.4 354.3 850.2 396.3 830.9 433 791.4 444.7 778.1 462.9 780.1 481.4 781.3 500.4 781.3 724.8 781.3 906.6 634.4 906.6 453.1 906.3 271.9 724.4 125 500 125Z",
        "width": 1000
      },
      "search": [
        "chat"
      ]
    },
    {
      "uid": "d33fa507efb9f180f1d5754089d089e9",
      "css": "cart",
      "code": 59407,
      "src": "custom_icons",
      "selected": true,
      "svg": {
        "path": "M331.3 737.5C286.6 737.5 250 774.1 250 818.8 250 863.4 286.6 900 331.3 900S412.5 863.4 412.5 818.8C412.5 774.1 375.9 737.5 331.3 737.5ZM93.8 100V181.3H175L321.3 477.5 260.1 577C254 587.2 250 601.4 250 615.6 250 670 287.1 696.9 337.5 696.9H812.5V618.8H347.4C341.4 618.8 337.3 614.7 337.3 608.6 337.3 606.6 341.6 598.4 341.6 598.4L382.2 534.4H684.8C715.3 534.4 741.7 518.1 755.9 491.7L902.2 240.2C904.6 235.4 906.3 228 906.3 219.9 906.3 197.5 888 181.3 865.6 181.3H264.4L225.8 100H93.8ZM731.2 737.5C686.6 737.5 650 774.1 650 818.8 650 863.4 686.6 900 731.2 900S812.5 863.4 812.5 818.8C812.5 774.1 775.9 737.5 731.2 737.5Z",
        "width": 1000
      },
      "search": [
        "cart"
      ]
    },
    {
      "uid": "2001413f2067cbd3cd2153ab296be716",
      "css": "cancel",
      "code": 59406,
      "src": "custom_icons",
      "selected": true,
      "svg": {
        "path": "M0 813.8L313.8 500 0 186.2 186.2 0 500 313.8 813.8 0 1000 186.2 686.2 500 1000 813.8 813.8 1000 500 686.2 186.2 1000 0 813.8Z",
        "width": 1000
      },
      "search": [
        "cancel"
      ]
    },
    {
      "uid": "4ad73fe6a478f4b719c72d364e9d0e12",
      "css": "bullets",
      "code": 59405,
      "src": "custom_icons",
      "selected": true,
      "svg": {
        "path": "M107.1 392.9C77.4 392.9 52.1 403.3 31.2 424.1 10.4 444.9 0 470.2 0 500 0 529.8 10.4 555.1 31.3 575.9 52.1 596.7 77.4 607.1 107.2 607.1 136.9 607.1 162.2 596.7 183 575.9 203.9 555.1 214.3 529.8 214.3 500 214.3 470.2 203.9 444.9 183 424.1 162.2 403.3 136.9 392.9 107.1 392.9ZM107.2 107.1C77.4 107.1 52.1 117.6 31.3 138.4 10.4 159.2 0 184.5 0 214.3 0 244 10.4 269.3 31.3 290.2 52.1 311 77.4 321.4 107.2 321.4 136.9 321.4 162.2 311 183 290.2 203.9 269.3 214.3 244 214.3 214.3 214.3 184.5 203.9 159.2 183 138.4 162.2 117.6 136.9 107.1 107.2 107.1ZM107.2 678.6C77.4 678.6 52.1 689 31.3 709.8 10.4 730.7 0 756 0 785.7 0 815.5 10.4 840.8 31.3 861.6 52.1 882.4 77.4 892.9 107.2 892.9 136.9 892.9 162.2 882.4 183 861.6 203.9 840.8 214.3 815.5 214.3 785.7 214.3 756 203.9 730.6 183 709.8 162.2 689 136.9 678.6 107.2 678.6ZM994.7 148.2C991.2 144.6 987 142.9 982.1 142.9H303.6C298.7 142.9 294.5 144.6 291 148.2 287.5 151.7 285.7 155.9 285.7 160.7V267.9C285.7 272.7 287.5 276.9 291 280.4 294.5 283.9 298.7 285.7 303.6 285.7H982.1C987 285.7 991.2 283.9 994.7 280.4 998.2 276.9 1000 272.7 1000 267.9V160.7C1000 155.9 998.2 151.7 994.7 148.2ZM982.1 428.6H303.6C298.7 428.6 294.5 430.3 291 433.9 287.5 437.4 285.7 441.6 285.7 446.4V553.6C285.7 558.4 287.5 562.6 291 566.1 294.5 569.7 298.7 571.4 303.6 571.4H982.1C987 571.4 991.2 569.7 994.7 566.1 998.2 562.6 1000 558.4 1000 553.6V446.4C1000 441.6 998.2 437.4 994.7 433.9 991.2 430.3 987 428.6 982.1 428.6ZM982.1 714.3H303.6C298.7 714.3 294.5 716.1 291 719.6 287.5 723.1 285.7 727.3 285.7 732.1V839.3C285.7 844.1 287.5 848.3 291 851.8 294.5 855.4 298.7 857.1 303.6 857.1H982.1C987 857.1 991.2 855.4 994.7 851.8 998.2 848.3 1000 844.1 1000 839.3V732.1C1000 727.3 998.2 723.1 994.7 719.6 991.2 716.1 987 714.3 982.1 714.3Z",
        "width": 1000
      },
      "search": [
        "bullets"
      ]
    },
    {
      "uid": "345ac142b3a3482d5c3d8056626cd208",
      "css": "asterisk",
      "code": 59404,
      "src": "custom_icons",
      "selected": true,
      "svg": {
        "path": "M687.3 500L898.4 378.1 804.7 215.6 593.8 337.5V93.8H406.3V337.5L195.3 215.6 101.6 378.1 312.7 500 101.6 621.9 195.3 784.4 406.3 662.5V906.3H593.8V662.5L804.7 784.4 898.4 621.9Z",
        "width": 1000
      },
      "search": [
        "asterisk"
      ]
    },
    {
      "uid": "8865949f0399dc514fb6594055109b3d",
      "css": "arrow-u",
      "code": 59403,
      "src": "custom_icons",
      "selected": true,
      "svg": {
        "path": "M541.7 834V326.8L775.5 560.5 834 500 500 166 166 500 224.5 558.4 458.3 326.8V834H541.7Z",
        "width": 1000
      },
      "search": [
        "arrow-u"
      ]
    },
    {
      "uid": "4bd3d3a56119b4c4ed0f6106857e92d9",
      "css": "arrow-r",
      "code": 59402,
      "src": "custom_icons",
      "selected": true,
      "svg": {
        "path": "M166 541.7H673.3L439.5 775.5 500 834 834 500 500 166 441.6 224.5 673.3 458.3H166V541.7Z",
        "width": 1000
      },
      "search": [
        "arrow-r"
      ]
    },
    {
      "uid": "e44a4c99b0b90597e45522ee7816ee43",
      "css": "flash",
      "code": 59421,
      "src": "custom_icons",
      "selected": true,
      "svg": {
        "path": "M734.8 437.5H523.4L625.8 72.5C627.5 63.7 616.8 58.6 611.7 65.8L252.9 536.3C245.5 547.3 252.5 562.5 265.2 562.5H476.6L374.2 927.5C372.5 936.3 383.2 941.4 388.3 934.2L747.1 463.9C754.3 452.7 747.5 437.5 734.8 437.5Z",
        "width": 1000
      },
      "search": [
        "flash"
      ]
    },
    {
      "uid": "06fac3c0b4eaebee35d1ee6d698361cc",
      "css": "logout",
      "code": 59441,
      "src": "custom_icons",
      "selected": true,
      "svg": {
        "path": "M408.2 846.9C406.9 843.5 406.4 840.6 406.9 838.3 407.3 836 405.8 834.1 402.4 832.6 399 831.1 397.3 829.9 397.3 829.1 397.3 828.2 394.9 827.6 390 827.2 385.1 826.7 382.6 826.5 382.6 826.5H374.4 367.3 183.7C155.6 826.5 131.6 816.5 111.6 796.5 91.6 776.6 81.6 752.5 81.6 724.5V275.5C81.6 247.4 91.6 223.4 111.6 203.4 131.6 183.5 155.6 173.5 183.7 173.5H387.7C393.3 173.5 397.6 172.1 400.8 169.3 404 166.6 406.1 162.4 407.2 156.9 408.3 151.4 408.9 146.4 409.1 141.9 409.3 137.4 409.2 131.8 408.8 125 408.4 118.2 408.2 113.9 408.2 112.2 408.2 106.7 406.1 101.9 402.1 97.9 398.1 93.9 393.3 91.8 387.8 91.8H183.7C133.1 91.8 89.8 109.8 53.9 145.7 18 181.7 0 224.9 0 275.5V724.5C0 775.1 18 818.3 53.9 854.3 89.8 890.2 133.1 908.2 183.7 908.2H387.8C393.3 908.2 397.6 906.8 400.8 904 404 901.3 406.1 897.1 407.2 891.6 408.3 886.1 408.9 881 409.1 876.6 409.3 872.1 409.2 866.5 408.8 859.7 408.4 852.9 408.2 848.6 408.2 846.9ZM987.9 471.3L640.9 124.4C632.9 116.3 623.3 112.2 612.2 112.2 601.2 112.2 591.6 116.3 583.5 124.4 575.5 132.4 571.4 142 571.4 153.1V336.7H285.7C274.7 336.7 265.1 340.8 257 348.8 248.9 356.9 244.9 366.5 244.9 377.6V622.5C244.9 633.5 248.9 643.1 257 651.2 265.1 659.2 274.7 663.3 285.7 663.3H571.4V846.9C571.4 858 575.5 867.6 583.5 875.6 591.6 883.7 601.2 887.8 612.3 887.8 623.3 887.8 632.9 883.7 640.9 875.6L987.9 528.7C996 520.6 1000 511.1 1000 500 1000 489 996 479.4 987.9 471.3Z",
        "width": 1000
      },
      "search": [
        "logout"
      ]
    },
    {
      "uid": "4b622482cd4c1cbb4f32c33b44ad8e73",
      "css": "plus",
      "code": 59461,
      "src": "custom_icons",
      "selected": true,
      "svg": {
        "path": "M1000 404.6V595.4C1000 609.7 988.4 621.4 974 621.4H621.4V974C621.4 988.4 609.7 1000 595.4 1000H404.6C390.3 1000 378.6 988.4 378.6 974V621.4H26C11.6 621.4 0 609.7 0 595.4V404.6C0 390.3 11.6 378.6 26 378.6H378.6V26C378.6 11.6 390.3 0 404.6 0H595.4C609.7 0 621.4 11.6 621.4 26V378.6H974C988.4 378.6 1000 390.3 1000 404.6Z",
        "width": 1000
      },
      "search": [
        "plus"
      ]
    },
    {
      "uid": "45e73d176fc52aec13d4d0efd63eed6f",
      "css": "save",
      "code": 59462,
      "src": "custom_icons",
      "selected": true,
      "svg": {
        "path": "M531.3 125H500C491.4 125 484.4 132 484.4 140.6V281.3C484.4 289.8 499.2 296.9 507.8 296.9H531.3C539.8 296.9 546.9 289.8 546.9 281.3V140.6C546.9 132 539.8 125 531.3 125ZM847.5 254.1L746.1 152.7C728.5 135.2 704.5 125 679.5 125H624.8C607.6 125 593.6 139.3 593.6 156.6V312.9C593.6 330.1 579.5 344.1 562.3 344.1H312.5C295.3 344.1 281.3 330.1 281.3 312.9V156.6C281.3 139.5 267.2 125 250 125H187.5C153.1 125 125 153.1 125 187.5V812.5C125 846.9 153.1 875 187.5 875H812.5C846.9 875 875 846.9 875 812.5V320.3C875 295.5 865 271.7 847.5 254.1ZM628.9 781.4C628.9 798.6 613.3 812.7 594.1 812.7H280.9C261.7 812.7 246.1 798.6 246.1 781.4V593.9C246.1 576.8 261.7 562.7 280.9 562.7H594.1C613.3 562.7 628.9 576.8 628.9 593.9V781.4Z",
        "width": 1000
      },
      "search": [
        "save"
      ]
    },
    {
      "uid": "feec285a68063d5c0d1e3641de700d31",
      "css": "ribbon",
      "code": 59463,
      "src": "custom_icons",
      "selected": true,
      "svg": {
        "path": "M497.9 573C640.4 574.2 756.3 458.4 755.1 315.6 753.9 179.1 638.5 63.7 502.1 62.5 359.6 61.3 243.8 177.1 244.9 319.9 246.1 456.4 361.5 571.9 497.9 573ZM490.6 174.4C577.1 168.9 648.6 240.4 643.2 327.1 638.7 398.6 580.9 456.4 509.4 461.1 422.9 466.6 351.4 395.1 356.8 308.4 361.3 236.9 419.1 179.1 490.6 174.4ZM500 602.3C416.4 602.3 341 567 288.1 510.5 284.4 506.6 277.9 507.2 275.2 511.9L127.1 771.1C121.1 781.8 128.7 795.1 141.2 795.1H297.7C303.3 795.1 308.6 798 311.5 802.9L387.7 929.7C394.3 940.8 410.7 939.8 416.2 928.1L500.2 743.4 561.3 608.8C564.1 602.9 559 596.5 552.5 597.7 535.4 600.6 518 602.3 500 602.3ZM711.9 510.4C683.4 540.6 648.6 565 609.4 580.9 607.4 581.6 605.9 583 605.1 585L517.8 775.8C516.8 777.9 516.8 780.3 517.8 782.4L584 927.9C589.3 939.6 605.9 940.6 612.5 929.5L688.7 802.7C691.6 797.9 696.9 794.9 702.5 794.9H859C871.3 794.9 879.1 781.6 873 770.9L725 511.5C722.1 507.2 715.6 506.4 711.9 510.4Z",
        "width": 1000
      },
      "search": [
        "ribbon"
      ]
    },
    {
      "uid": "70297bdb24bed552d3faeafccbfd303d",
      "css": "people",
      "code": 59464,
      "src": "custom_icons",
      "selected": true,
      "svg": {
        "path": "M659.1 453.1C724.7 453.1 778.4 400.4 778.4 335.9 778.4 271.5 724.7 218.8 659.1 218.8S539.8 271.5 539.8 335.9C539.8 400.4 593.5 453.1 659.1 453.1ZM340.9 453.1C406.5 453.1 460.2 400.4 460.2 335.9 460.2 271.5 406.5 218.8 340.9 218.8S221.6 271.5 221.6 335.9C221.6 400.4 275.3 453.1 340.9 453.1ZM340.9 539.1C247.4 539.1 62.5 584 62.5 675.8V781.3H625V675.8C625 584 434.4 539.1 340.9 539.1ZM659.1 560.6C647.2 560.6 638.9 560.6 625 562.5 670.8 595.7 687.5 617.2 687.5 675.8V781.3H937.5V675.8C937.5 584 752.6 560.6 659.1 560.6Z",
        "width": 1000
      },
      "search": [
        "people"
      ]
    },
    {
      "uid": "6e3d4979630bbcecba26c2963097e83f",
      "css": "star",
      "code": 59465,
      "src": "custom_icons",
      "selected": true,
      "svg": {
        "path": "M500 727.9L743.8 875 679.3 597.5 894.5 411 610.8 386.6 500 125 389.2 386.6 105.5 411 320.7 597.5 256.2 875Z",
        "width": 1000
      },
      "search": [
        "star"
      ]
    },
    {
      "uid": "73caefbdcac2a3ee5c1b5c61c2fab613",
      "css": "minus",
      "code": 59466,
      "src": "custom_icons",
      "selected": true,
      "svg": {
        "path": "M1000 404.6V595.4C1000 609.7 988.4 621.4 974 621.4H26C11.6 621.4 0 609.7 0 595.4V404.6C0 390.3 11.6 378.6 26 378.6H974C988.4 378.6 1000 390.3 1000 404.6Z",
        "width": 1000
      },
      "search": [
        "minus"
      ]
    },
    {
      "uid": "91e402b5711b83ac659870c919bb88f0",
      "css": "question",
      "code": 59467,
      "src": "custom_icons",
      "selected": true,
      "svg": {
        "path": "M582.8 750H395.3C387 750 379.7 753.1 373.5 759.4 367.2 765.6 364.1 772.9 364.1 781.2V968.8C364.1 977.1 367.2 984.4 373.5 990.6 379.7 996.9 387 1000 395.3 1000H582.8C591.2 1000 598.5 996.9 604.7 990.6 611 984.4 614.1 977.1 614.1 968.8V781.2C614.1 772.9 611 765.6 604.7 759.4 598.5 753.1 591.2 750 582.8 750ZM829 188.7C807.6 149.3 780 116.1 746.1 89.1 712.3 62 674.2 40.4 632.1 24.2 589.9 8.1 548 0 506.3 0 348 0 227.1 69.3 143.8 207.8 139.6 214.6 138.2 221.9 139.5 229.7 140.8 237.5 144.8 244 151.6 249.2L279.7 346.9C286.5 351 293 353.1 299.3 353.1 308.6 353.1 316.7 349 323.5 340.6 361 293.7 388.8 263.8 407.1 250.8 429.5 235.7 457.6 228.1 491.4 228.1 523.2 228.1 551.2 236.5 575.4 253.1 599.7 269.8 611.7 289.1 611.7 310.9 611.7 335.4 605.3 355.2 592.2 370.3 579.2 385.4 557.3 400 526.6 414.1 486 432.3 448.7 460.5 414.9 498.8 381 537.1 364.1 577.9 364.1 621.1V656.2C364.1 666.1 366.8 675.9 372.3 685.5 377.8 695.2 384.4 700 392.2 700H579.7C588.1 700 595.3 696 601.6 687.9 607.8 679.8 611 671.4 611 662.5 611 649.5 618.1 632 632.4 610.2 646.8 588.3 664.6 571.3 686 559.4 706.3 547.9 722.2 538.7 733.6 531.6 745.1 524.6 760.1 513.3 778.6 497.6 797 482 811.4 466.5 821.5 451.2 831.7 435.8 840.8 415.9 848.9 391.4 857 366.9 861 340.6 861 312.5 861 269.3 850.3 228 829 188.7Z",
        "width": 1000
      },
      "search": [
        "question"
      ]
    },
    {
      "uid": "3f9cd69a4ba52c51a255c00a07e05888",
      "css": "tag",
      "code": 59469,
      "src": "custom_icons",
      "selected": true,
      "svg": {
        "path": "M812.5 125H503.1L149.4 491.4C133.8 507 125.4 527.5 125 548 124.4 570.1 132.6 592.2 149.4 609L391 850.4C406.6 866 431.6 874.8 447.3 874.8S491.8 867.2 508.6 850.4L875 500V187.5L812.5 125ZM752.5 325.6C710.2 337.5 671.9 306.1 671.9 265.6 671.9 231.1 699.8 203.1 734.4 203.1 774.8 203.1 806.3 241.4 794.3 283.8 788.7 303.9 772.7 319.9 752.5 325.6Z",
        "width": 1000
      },
      "search": [
        "tag"
      ]
    },
    {
      "uid": "5368cc063b7cd86f4f9273b8814cc8b1",
      "css": "tags",
      "code": 59470,
      "src": "custom_icons",
      "selected": true,
      "svg": {
        "path": "M863.3 209V484.4L447.7 882.2C463.3 897.9 488.3 906.3 503.9 906.3S548.4 899 565.2 882.2L937.5 531.3V281.3L863.3 209ZM750 93.8H437.5L86.5 460.2C70.9 475.8 63.1 494.9 62.5 515.6 61.9 537.7 69.7 561.1 86.5 577.9L328.3 819.3C343.9 835 368.9 843.8 384.6 843.8S428.9 836.1 445.7 819.3L812.5 468.8V156.3L750 93.8ZM690 294.3C647.7 306.2 609.4 274.8 609.4 234.4 609.4 199.8 637.3 171.9 671.9 171.9 712.3 171.9 743.8 210.2 731.8 252.5 726.2 272.7 710.2 288.7 690 294.3Z",
        "width": 1000
      },
      "search": [
        "tags"
      ]
    },
    {
      "uid": "e63eed4dfd33a902efbdaa5beffb02d5",
      "css": "swap",
      "code": 59468,
      "src": "custom_icons",
      "selected": true,
      "svg": {
        "path": "M256.4 451.4L62.5 645.7 256.4 839.8V694.1H597.3V597.1H256.4V451.4ZM937.5 354.3L743.6 160.2V305.9H402.7V402.9H743.6V548.6L937.5 354.3Z",
        "width": 1000
      },
      "search": [
        "swap"
      ]
    },
    {
      "uid": "9fdcabc042c6301127437ed881ad36bc",
      "css": "person",
      "code": 59450,
      "src": "custom_icons",
      "selected": true,
      "svg": {
        "path": "M500 500C603.1 500 687.5 415.6 687.5 312.5S603.1 125 500 125 312.5 209.4 312.5 312.5 396.9 500 500 500ZM500 593.8C375.8 593.8 125 657 125 781.3V875H875V781.3C875 657 624.2 593.8 500 593.8Z",
        "width": 1000
      },
      "search": [
        "person"
      ]
    },
    {
      "uid": "fad361de55f3875a9b979ea43fbf8099",
      "css": "heart-half",
      "code": 59430,
      "src": "custom_icons",
      "selected": true,
      "svg": {
        "path": "M682.8 125C611.7 125 544.7 157.6 500 210.7 455.3 157.6 388.3 125 317.2 125 191.2 125 93.8 223 93.8 349.8 93.8 505.1 231.8 629.7 441 821.9L500 875 559 821.9C768.2 629.7 906.3 505.1 906.3 349.8 906.3 223 808.8 125 682.8 125ZM500 793V308L547.9 251.2C581.3 211.3 631.8 187.7 682.8 187.7 727 187.7 767.6 204.1 797.5 234.2 827.3 264.3 843.8 305.5 843.8 350 843.8 406.6 819.3 462.3 764.8 530.1 708.6 599.6 598.4 702.5 500 793Z",
        "width": 1000
      },
      "search": [
        "heart-half"
      ]
    },
    {
      "uid": "05435a13e6afd712dfe532b9bb3441b7",
      "css": "facebook",
      "code": 59429,
      "src": "custom_icons",
      "selected": true,
      "svg": {
        "path": "M750 0.2L620.3 0C474.6 0 380.5 96.6 380.5 246.1V359.6H250.1C238.8 359.6 229.7 368.7 229.7 380V544.4C229.7 555.6 238.8 564.8 250.1 564.8H380.5V979.6C380.5 990.9 389.6 1000 400.8 1000H571C582.2 1000 591.3 990.9 591.3 979.6V564.8H743.8C755.1 564.8 764.2 555.6 764.2 544.4L764.2 380C764.2 374.6 762.1 369.4 758.3 365.6 754.5 361.7 749.3 359.6 743.8 359.6H591.3V263.4C591.3 217.1 602.4 193.7 662.6 193.7L749.9 193.6C761.2 193.6 770.3 184.5 770.3 173.3V20.6C770.3 9.4 761.2 0.2 750 0.2Z",
        "width": 1000
      },
      "search": [
        "facebook"
      ]
    },
    {
      "uid": "82212252d64d8e4c2528a58a617bc8ea",
      "css": "heart-empty",
      "code": 59449,
      "src": "custom_icons",
      "selected": true,
      "svg": {
        "path": "M682.8 125C611.7 125 544.7 157.6 500 210.7 455.3 157.6 388.3 125 317.2 125 191.2 125 93.8 223 93.8 349.8 93.8 505.1 231.8 629.7 441 821.9L500 875 559 821.9C768.2 629.7 906.3 505.1 906.3 349.8 906.3 223 808.8 125 682.8 125ZM525 768.2L516.8 775.8 500 791 483.2 775.8 475 768.2C376.6 677.7 291.4 599.6 235.4 529.9 180.7 462.1 156.4 406.6 156.4 349.8 156.4 305.1 172.9 264.1 202.7 234 232.4 203.9 273 187.5 317.2 187.5 368.2 187.5 418.8 211.3 452.1 251L500 307.8 547.9 251C581.3 211.1 631.8 187.5 682.8 187.5 727 187.5 767.6 203.9 797.5 234 827.3 264.1 843.8 305.3 843.8 349.8 843.8 406.4 819.3 462.1 764.8 529.9 708.6 599.6 623.6 677.7 525 768.2Z",
        "width": 1000
      },
      "search": [
        "heart-empty"
      ]
    },
    {
      "uid": "b100f82d3c1d947bf6b345f0020176ee",
      "css": "help",
      "code": 59448,
      "src": "custom_icons",
      "selected": true,
      "svg": {
        "path": "M500 93.8C275.6 93.8 93.8 275.6 93.8 500S275.6 906.3 500 906.3 906.3 724.4 906.3 500 724.4 93.8 500 93.8ZM606.6 164.8C659.6 181.6 708.2 210.9 748.6 251.4 789.1 291.8 818.4 340.4 835.2 393.4L661.7 405.1C645.7 377.7 622.9 354.9 595.5 338.7L606.6 164.8ZM251.4 251.4C291.8 210.9 340.2 181.6 393.4 164.8L404.5 338.7C377.3 354.9 354.5 377.7 338.3 404.9L164.6 393.4C181.6 340.4 210.9 291.8 251.4 251.4ZM393.4 835.2C340.4 818.4 291.8 789.1 251.4 748.6 210.9 708.2 181.6 659.6 164.8 606.6L338.7 595.5C354.7 622.7 377.5 645.3 404.7 661.5L393.4 835.2ZM500 632.8C426.8 632.8 367.2 573.2 367.2 500S426.8 367.2 500 367.2 632.8 426.8 632.8 500 573.2 632.8 500 632.8ZM748.6 748.6C708.2 789.1 659.6 818.4 606.6 835.2L595.1 661.5C622.7 645.3 645.5 622.3 661.7 594.7L835.2 606.4C818.4 659.6 789.1 708.2 748.6 748.6Z",
        "width": 1000
      },
      "search": [
        "help"
      ]
    },
    {
      "uid": "e5299eb4147abaf15609a77f9031906f",
      "css": "heart",
      "code": 59428,
      "src": "custom_icons",
      "selected": true,
      "svg": {
        "path": "M500 875L441.1 821.9C231.9 629.8 93.8 505.1 93.8 349.8 93.8 223.1 191.2 125 317.2 125 388.3 125 455.3 157.7 500 210.8 544.7 157.7 611.7 125 682.8 125 808.8 125 906.3 223.1 906.3 349.8 906.3 505.1 768.1 629.8 558.9 821.9L500 875Z",
        "width": 1000
      },
      "search": [
        "heart"
      ]
    },
    {
      "uid": "7f1a79c4abe3258bace30d2aeeb5f59c",
      "css": "cut",
      "code": 59427,
      "src": "custom_icons",
      "selected": true,
      "svg": {
        "path": "M601.6 541.4C651.4 477 758.8 323.6 777.7 277 791.8 242.6 798.4 212.9 798 186.7 797.7 151.8 786.3 129.5 762.3 107.4 752.1 98 735.9 93.9 723.2 93.9L499.8 393.9 480.3 420.1 474.6 427.7 474.4 427.9 446.1 466.4C445.9 466.6 445.7 467 445.5 467.2 444.5 468.8 430.9 488.5 415.8 511.5 410 520.5 403.9 530.1 398.2 539.1 391.4 550 385.4 560.5 381.1 568.8 374 582.6 366.8 596.9 360.2 610.7 352.9 625.4 346.1 639.3 339.8 651.2 319.9 636.9 296.9 629.5 272.9 629.5 238.7 629.5 207 644.5 183.4 671.7 160.9 697.5 148.4 731.6 148.4 767.8 148.4 803.9 160.9 838.1 183.4 864.1 207 891.2 238.9 906.3 272.9 906.3 301 906.3 327.5 896.1 349.4 877 369.9 859.2 384.6 835.4 392 807.8 393.9 801.8 414.6 740 443 695.9 460.9 667.8 486.3 650.2 500.8 641.6L527.1 622.7C527.1 622.9 552 605.7 601.6 541.4ZM273.2 822.5C247.3 822.5 226.4 797.9 226.4 767.8S247.3 713.1 273.2 713.1 320.1 737.7 320.1 767.8C320.1 798 299 822.5 273.2 822.5ZM500.2 562.9C483 562.9 468.9 548.8 468.9 531.6S483 500.4 500.2 500.4 531.4 514.5 531.4 531.6 517.4 562.9 500.2 562.9ZM374 508.6C375.4 510.5 377.1 512.3 378.9 513.9 382.2 508.4 385.9 502.7 389.5 497.1L480.3 368.6 275.2 93.8C257.8 93.8 247.1 95.5 239.1 101.4 215.8 118.8 201.8 151.4 201.4 186.5 201 212.9 207.8 242.4 221.7 276.8 238.5 317.8 304.9 413.9 374 508.6ZM726.6 629.5C702.5 629.5 679.5 636.9 659.6 651.2 653.3 639.3 646.5 625.4 639.3 610.7 632.6 597.3 625.8 583.4 618.9 570.1L597.7 597.3 526.6 661.9C536.7 670.9 547.5 682.2 556.4 696.1 584.8 740.2 605.3 802 607.2 808 614.6 835.5 629.3 859.4 649.8 877.1 671.9 896.3 698.4 906.4 726.4 906.4 795.3 906.4 851.4 844.3 851.4 768S795.5 629.5 726.6 629.5ZM726.8 822.5C700.8 822.5 679.9 797.9 679.9 767.8S700.8 713.1 726.8 713.1 773.6 737.7 773.6 767.8C773.6 798 752.7 822.5 726.8 822.5Z",
        "width": 1000
      },
      "search": [
        "cut"
      ]
    },
    {
      "uid": "328536541b5afefa2e1d2710a87a2e57",
      "css": "moon",
      "code": 59447,
      "src": "custom_icons",
      "selected": true,
      "svg": {
        "path": "M784 691.8C778.3 692 772.7 692.2 767 692.2 673.4 692.2 585.4 655.3 519.3 587.9 453.1 520.7 416.8 431.4 416.8 336.3 416.8 282.2 428.7 229.9 451 182.6 457 169.7 469.1 150.2 477.5 136.9 481.2 131.2 476.6 123.8 469.9 125 458.2 126.8 440.2 130.7 415.8 138.3 263.9 186.5 156.3 329.5 156.3 498 156.3 706.3 322.5 875 527.5 875 640.8 875 742.4 823.4 810.5 742 822.3 727.9 833 715 842.6 699.4 846.1 693.6 841.2 686.3 834.6 687.5 818 690.8 801.2 691 784 691.8Z",
        "width": 1000
      },
      "search": [
        "moon"
      ]
    },
    {
      "uid": "35d74c0e8ee0df1768d22a04db57dcbf",
      "css": "hourglass",
      "code": 59446,
      "src": "custom_icons",
      "selected": true,
      "svg": {
        "path": "M811.7 847.7H801.8C789.1 847.7 778.3 845.9 777 833.2V833C748.4 567.6 581.3 562.5 581.3 500S748.6 432.4 777 167V166.8C778.3 154.1 789.1 152.3 801.8 152.3H811.7C826.4 152.3 839.1 141 839.8 126.4 840.6 110.7 828.1 97.7 812.5 97.7H188.3C173.6 97.7 160.9 109 160.2 123.6 159.4 139.3 171.9 152.3 187.5 152.3H198.2C210.9 152.3 221.7 154.1 223 166.8V167C251.6 432.4 418.8 437.5 418.8 500S251.4 567.6 223 833V833.2C221.7 845.9 210.9 847.7 198.2 847.7H188.3C173.6 847.7 160.9 859 160.2 873.6 159.4 889.3 171.9 902.3 187.5 902.3H812.5C828.1 902.3 840.6 889.5 839.8 873.6 839.1 859 826.4 847.7 811.7 847.7ZM318.9 780.9C375 625 474.4 643.9 474.4 582.4V473.8C474.4 435.9 402.5 409.6 357.6 348 350.2 337.9 357.6 323.8 370.3 323.8H629.9C642.6 323.8 650.2 337.5 643 347.7 598.8 409.4 525.6 435.9 525.6 473.8V582.4C525.6 643.4 621.1 626.8 681.4 780.9 686.9 794.7 682.8 812.1 668 812.1H332.4C317.4 812.1 313.9 794.9 318.9 780.9Z",
        "width": 1000
      },
      "search": [
        "hourglass"
      ]
    },
    {
      "uid": "6987c2b62f4e7927f8050d30be93fc6a",
      "css": "edit",
      "code": 59426,
      "src": "custom_icons",
      "selected": true,
      "svg": {
        "path": "M57.3 182.6H472.7C455 200.3 437.4 218 419.7 235.8L358.5 297.1H114.3V885H702.2V640.6C740.3 602.5 778.4 564.3 816.6 526.2V942C816.6 973.6 790.9 999.3 759.3 999.3H57.3C25.7 999.3 0 973.6 0 942V239.6C0 208 25.7 182.6 57.3 182.6ZM988.4 147.7C994.5 161.6 996.1 177.3 1000 192.1 999 204 994.9 213.1 986.5 221.3 817.8 389.9 649 558.4 480.4 727.4 473.9 733.9 466.8 737.6 458 739.4 385.2 754.7 312.5 770 239.7 785.5 222.6 789.2 209.7 776.3 213.4 759.2 228.9 685.8 244.2 612.4 260.3 539.3 261.9 532.1 266.2 524.6 271.3 519.3 319.6 470.4 368.3 421.9 416.8 373.3 536.9 253.3 657 133.2 776.8 13 785.6 4 795.4-0.5 807.2 0.9 820.6 2.6 834.7 4 847.1 9.1 913 35.8 959.8 82.9 988.4 147.7ZM433.3 693.6C430.1 682.8 428.3 671.1 423 661.4 402.4 623.2 372.8 593.9 333.9 574.5 322.9 569 311.3 565.6 297.8 566.8 291.3 597.6 284.5 627.5 278.6 657.7V657.9C310.6 663.4 336.1 688.3 342.4 720.1 370.8 714.4 398.9 708 427.2 702.3 432.7 701.3 434.8 698.7 433.3 693.6Z",
        "width": 1000
      },
      "search": [
        "edit"
      ]
    },
    {
      "uid": "9b6334ff5aec7b1f5f0ed499e094755d",
      "css": "half-star",
      "code": 59425,
      "src": "custom_icons",
      "selected": true,
      "svg": {
        "path": "M894.5 411L610.8 386.6 500 125 389.2 386.6 105.5 411 320.7 597.5 256.2 875 500 727.9 743.8 875 679.3 597.5 894.5 411ZM532.3 674.4L500 654.9 500 285.2 553.3 411 567.9 445.6 605.5 448.9 741.9 460.6 638.4 550.3 609.9 575 618.4 611.7 649.4 745.1 532.3 674.4Z",
        "width": 1000
      },
      "search": [
        "half-star"
      ]
    },
    {
      "uid": "4f79a9da175e7203c763ab875df5fe0f",
      "css": "minus-coin",
      "code": 59445,
      "src": "custom_icons",
      "selected": true,
      "svg": {
        "path": "M500 93.8C275.6 93.8 93.8 275.6 93.8 500S275.6 906.3 500 906.3 906.3 724.4 906.3 500 724.4 93.8 500 93.8ZM709 541H291V459H709V541Z",
        "width": 1000
      },
      "search": [
        "minus-coin"
      ]
    },
    {
      "uid": "8904c479dc976e8db24cfd08ef4a6328",
      "css": "image",
      "code": 59444,
      "src": "custom_icons",
      "selected": true,
      "svg": {
        "path": "M219.9 610H592.4C601.2 610 606.3 600 601.2 592.8L414.8 293.2C410.5 286.9 401.4 286.9 397.1 293.2L210.9 592.8C205.9 600 211.1 610 219.9 610ZM599 496.7L667.4 605.5C669.3 608.4 672.7 610.2 676.2 610.2H780.1C788.9 610.2 793.9 600.2 788.9 593L668.6 421.7C664.3 415.4 655.1 415.4 650.8 421.7L598.8 484.4C596.5 487.9 596.5 492.8 599 496.7ZM685.7 327.9C711.3 325.4 732 304.7 734.6 279.1 738.1 244.5 709.2 215.6 674.6 219.1 649 221.7 628.3 242.4 625.8 268 622.5 302.5 651.2 331.4 685.7 327.9ZM843.8 93.8H156.3C121.7 93.8 93.8 121.7 93.8 156.3V843.8C93.8 878.3 121.7 906.3 156.3 906.3H843.8C878.3 906.3 906.3 878.3 906.3 843.8V156.3C906.3 121.7 878.3 93.8 843.8 93.8ZM838.5 640.6C838.5 649.2 831.4 656.3 822.9 656.3H177.1C168.6 656.3 161.5 649.2 161.5 640.6V177.1C161.5 168.6 168.6 161.5 177.1 161.5H823C831.6 161.5 838.7 168.6 838.7 177.1V640.6Z",
        "width": 1000
      },
      "search": [
        "image"
      ]
    },
    {
      "uid": "abd5e413f5030bc366d16fc596f29f05",
      "css": "cols",
      "code": 59424,
      "src": "custom_icons",
      "selected": true,
      "svg": {
        "path": "M0 923.3C0 957.2 27.5 984.7 61.3 984.7H224.9C258.8 984.7 286.3 957.2 286.3 923.3V76.7C286.3 42.8 258.8 15.3 224.9 15.3H61.3C27.5 15.3 0 42.8 0 76.7V923.3ZM418.2 15.3C384.4 15.3 356.9 42.8 356.9 76.7V923.3C356.9 957.2 384.4 984.7 418.2 984.7H581.8C615.6 984.7 643.1 957.2 643.1 923.3V76.7C643.1 42.8 615.6 15.3 581.8 15.3H418.2ZM775.1 984.7H938.7C972.5 984.7 1000 957.2 1000 923.3V76.7C1000 42.8 972.5 15.3 938.7 15.3H775.1C741.2 15.3 713.7 42.8 713.7 76.7V923.3C713.7 957.2 741.2 984.7 775.1 984.7Z",
        "width": 1000
      },
      "search": [
        "cols"
      ]
    },
    {
      "uid": "d383475725b1376d33db839c15855911",
      "css": "coin",
      "code": 59423,
      "src": "custom_icons",
      "selected": true,
      "svg": {
        "path": "M500 62.5C741.2 62.5 937.5 258.8 937.5 500S741.2 937.5 500 937.5 62.5 741.2 62.5 500 258.8 62.5 500 62.5M500 0C223.9 0 0 223.9 0 500S223.9 1000 500 1000 1000 776.1 1000 500 776.1 0 500 0L500 0ZM500 125C292.8 125 125 292.8 125 500 125 707.1 292.8 875 500 875 707.1 875 875 707.1 875 500 875 292.8 707.1 125 500 125ZM636.4 693.1C611.8 720.6 576.2 736.9 529.8 741.8V812.5H470.6V742.1C393.1 734.2 345.2 689.1 326.7 607.1L418.3 583.3C426.8 634.8 454.8 660.6 502.5 660.6 524.8 660.6 541.3 655.1 551.8 644S567.5 619.7 567.5 604.1C567.5 587.9 562.3 575.6 551.8 567.3 541.3 559 517.9 548.4 481.7 535.6 449.2 524.3 423.7 513.2 405.4 502.1 387.1 491.1 372.2 475.6 360.8 455.8 349.4 435.9 343.6 412.7 343.6 386.4 343.6 351.7 353.9 320.6 374.3 292.8 394.7 265.2 426.8 248.3 470.6 242.1V187.5H529.8V242.1C595.9 250.1 638.8 287.5 658.3 354.4L576.7 387.9C560.8 342 536.3 319 502.9 319 486.2 319 472.8 324.2 462.7 334.4 452.6 344.7 447.5 357.1 447.5 371.7 447.5 386.6 452.4 398 462.2 406 471.9 413.9 492.8 423.8 524.8 435.5 559.9 448.4 587.5 460.5 607.5 471.9 627.5 483.3 643.4 499.1 655.4 519.2 667.3 539.4 673.3 562.9 673.3 589.8 673.3 631.1 660.9 665.5 636.4 693.1Z",
        "width": 1000
      },
      "search": [
        "coin"
      ]
    },
    {
      "uid": "d72fc655aa8547ea2bf0197b18281b32",
      "css": "man",
      "code": 59443,
      "src": "custom_icons",
      "selected": true,
      "svg": {
        "path": "M499.4 208.2H499C450.2 208.2 410.2 168.6 410.2 119.7 410.2 70.9 450 31.3 499 31.3S587.9 70.9 587.9 119.7C587.9 143.4 578.7 165.6 561.9 182.2 545.3 199 523 208.2 499.4 208.2ZM432 968.8C403.9 968.8 379.3 948.2 379.3 909.4L381.3 367.2H361.7V572.3C361.7 590.4 355.9 601.8 349.2 608 340.8 616 331.4 620.5 319.5 620.5 307.4 620.5 298.2 616 289.8 608 283.2 601.8 277.3 590.6 277.3 572.3V334.8C277.3 307.8 285.9 280.5 304.3 259.8 324.6 237.1 350.4 224.6 380.5 224.6H619.3C649.4 224.6 675.2 237.1 695.5 260 713.9 280.7 722.5 307.8 722.5 334.8V572.3C722.5 586.5 719.1 599.2 709.6 608 701 615.8 691.4 620.1 679.3 620.1S657.6 615.8 649 608C639.5 599.2 636.1 586.5 636.1 572.3V367.2H618.6V909.4C618.6 947.9 592.4 968.8 564.3 968.8 538.1 968.8 512.9 950.6 510.7 910.5V634.8H487.3V910C485.9 948.4 460.4 968.8 432 968.8Z",
        "width": 1000
      },
      "search": [
        "man"
      ]
    },
    {
      "uid": "b894402ff6cb347588ef07b6e308ac08",
      "css": "mail",
      "code": 59442,
      "src": "custom_icons",
      "selected": true,
      "svg": {
        "path": "M899.6 287.7L689.5 501.8C687.9 503.3 687.9 505.7 689.5 507.2L836.5 663.9C846.5 673.8 846.5 689.8 836.5 699.8 831.6 704.7 825 707.2 818.6 707.2S805.5 704.7 800.6 699.8L654.1 543.8C652.5 542.2 650 542.2 648.4 543.8L612.7 580.1C582.8 610.4 543.2 627.1 500.6 627.3 457.4 627.5 416.4 609.4 386.1 578.7L351.8 543.8C350.2 542.2 347.7 542.2 346.1 543.8L199.6 699.8C194.7 704.7 188.1 707.2 181.6 707.2S168.6 704.7 163.7 699.8C153.7 689.8 153.7 673.8 163.7 663.9L310.7 507.2C312.1 505.7 312.1 503.3 310.7 501.8L100.4 287.7C97.9 285.2 93.8 286.9 93.8 290.4V718.8C93.8 753.1 121.9 781.3 156.3 781.3H843.8C878.1 781.3 906.3 753.1 906.3 718.8V290.4C906.3 286.9 902 285.4 899.6 287.7ZM500 576.4C528.9 576.4 556.1 565 576.4 544.3L882.8 232.4C872.1 223.8 858.8 218.8 844.1 218.8H156.1C141.4 218.8 127.9 223.8 117.4 232.4L423.8 544.3C443.9 564.8 471.1 576.4 500 576.4Z",
        "width": 1000
      },
      "search": [
        "mail"
      ]
    },
    {
      "uid": "979a46bf2753bc07631417693cd4e905",
      "css": "doc",
      "code": 59422,
      "src": "custom_icons",
      "selected": true,
      "svg": {
        "path": "M843.8 0H93.8C42.2 0 0 42.2 0 93.8V906.3C0 957.8 42.2 1000 93.8 1000H843.8C895.3 1000 937.5 957.8 937.5 906.3V93.8C937.5 42.2 895.3 0 843.8 0ZM812.5 875H125V125H812.5V875ZM250 437.5H687.5V500H250ZM250 562.5H687.5V625H250ZM250 687.5H687.5V750H250ZM250 312.5H687.5V375H250Z",
        "width": 1000
      },
      "search": [
        "doc"
      ]
    },
    {
      "uid": "336d917e9c06d601deae22475d7d7125",
      "css": "menu",
      "code": 59485,
      "src": "custom_icons",
      "selected": true,
      "svg": {
        "path": "M59.6 124.1H940.4C1019.9 126.4 1019.9-2.2 940.4 0H59.6C-19.9-2.2-19.9 126.4 59.6 124.1ZM940.4 438H59.6C-19.9 435.7-19.9 564.3 59.6 562.1H940.4C1019.9 564.3 1019.9 435.7 940.4 438ZM940.4 873.7H59.6C-19.9 873.7-19.9 1000 59.6 1000H940.4C1019.9 1000 1019.9 873.7 940.4 873.7Z",
        "width": 1000
      },
      "search": [
        "menu"
      ]
    },
    {
      "uid": "d74428d6aa97e1d40cb2427f87d78d79",
      "css": "arrow-l",
      "code": 59486,
      "src": "custom_icons",
      "selected": true,
      "svg": {
        "path": "M834 458.3H326.8L560.5 224.5 500 166 166 500 500 834 558.4 775.5 326.8 541.7H834V458.3Z",
        "width": 1000
      },
      "search": [
        "arrow-l"
      ]
    },
    {
      "uid": "20b17a389aa796b163561922d9a164a6",
      "css": "down",
      "code": 59401,
      "src": "custom_icons",
      "selected": true,
      "svg": {
        "path": "M500 778.9C485.2 778.9 470.4 773.3 459 762L17 320C-5.7 297.3-5.7 260.6 17 238 39.6 215.4 76.2 215.4 98.9 238L500 639.1 901.1 238C923.8 215.4 960.4 215.4 983 238 1005.7 260.7 1005.7 297.3 983 320L540.9 762C529.6 773.3 514.8 778.9 500 778.9Z",
        "width": 1000
      },
      "search": [
        "down"
      ]
    },
    {
      "uid": "54140f3f41059bec2650c94195c43f58",
      "css": "contact",
      "code": 59487,
      "src": "custom_icons",
      "selected": true,
      "svg": {
        "path": "M0 111.1V888.9C0 950 50 1000 111.1 1000H888.9C950 1000 1000 950 1000 888.9V111.1C1000 50 950 0 888.9 0H111.1C50 0 0 50 0 111.1ZM666.7 333.3C666.7 427.8 594.4 500 500 500 405.6 500 333.3 427.8 333.3 333.3S405.6 166.7 500 166.7C594.4 166.7 666.7 238.9 666.7 333.3ZM166.7 777.8C166.7 666.7 388.9 605.6 500 605.6S833.3 666.7 833.3 777.8V833.3H166.7V777.8Z",
        "width": 1000
      },
      "search": [
        "contact"
      ]
    },
    {
      "uid": "a6b7be44c305528f787f72c1f65fa857",
      "css": "barcode",
      "code": 59411,
      "src": "custom_icons",
      "selected": true,
      "svg": {
        "path": "M90.1 21.2H9.8C4.4 21.2 0 25.6 0 31V968.3C0 973.7 4.4 978.1 9.8 978.1H90.1C95.6 978.1 99.9 973.7 99.9 968.3V31C99.9 25.6 95.6 21.2 90.1 21.2ZM188.3 813.9H228.5C233.9 813.9 238.3 809.5 238.3 804.1V31C238.3 25.6 233.9 21.2 228.5 21.2H188.3C182.9 21.2 178.5 25.6 178.5 31V804.1C178.5 809.5 182.9 813.9 188.3 813.9ZM340.1 813.9H392.1C397.6 813.9 401.9 809.5 401.9 804.1V31C401.9 25.6 397.6 21.2 392.1 21.2H340.1C334.7 21.2 330.3 25.6 330.3 31V804.1C330.3 809.5 334.7 813.9 340.1 813.9ZM478.4 813.9H529C534.4 813.9 538.8 809.5 538.8 804.1V31C538.8 25.6 534.4 21.2 529 21.2H478.4C473 21.2 468.6 25.6 468.6 31V804.1C468.6 809.5 473 813.9 478.4 813.9ZM616.8 813.9H697.1C702.5 813.9 706.9 809.5 706.9 804.1V31C706.9 25.6 702.5 21.2 697.1 21.2H616.8C611.4 21.2 607 25.6 607 31V804.1C607 809.5 611.4 813.9 616.8 813.9ZM781.9 813.9H835.5C840.9 813.9 845.3 809.5 845.3 804.1V31C845.3 25.6 840.9 21.2 835.5 21.2H781.9C776.5 21.2 772.1 25.6 772.1 31V804.1C772.1 809.5 776.5 813.9 781.9 813.9ZM990.2 21.2H909.9C904.4 21.2 900.1 25.6 900.1 31V968.3C900.1 973.7 904.4 978.1 909.9 978.1H990.2C995.6 978.1 1000 973.7 1000 968.3V31C1000 25.6 995.6 21.2 990.2 21.2ZM195.4 856.6C163.9 856.6 145.8 878.9 145.8 917.6 145.8 956.5 163.9 978.8 195.4 978.8 227 978.8 245.1 956.5 245.1 917.6 245.1 878.9 227 856.6 195.4 856.6ZM195.4 963C173 963 161.6 947.7 161.6 917.6 161.6 887.6 173 872.4 195.4 872.4 217.9 872.4 229.4 887.6 229.4 917.6 229.4 934.6 224.9 963 195.4 963ZM277 856.6H252.9C248.7 856.6 245.3 860 245.3 864.2V864.8C245.3 869 248.7 872.4 252.9 872.4H268.8V971.2C268.8 975.4 272.2 978.8 276.4 978.8H277C281.2 978.8 284.6 975.4 284.6 971.2V864.2C284.6 860 281.2 856.6 277 856.6ZM345.9 917.6H314.5C310.3 917.6 306.9 921 306.9 925.2V925.8C306.9 930 310.3 933.3 314.5 933.3H345.9C350.1 933.3 353.5 930 353.5 925.8V925.2C353.5 921 350.1 917.6 345.9 917.6ZM408 856.6C376.5 856.6 358.4 878.9 358.4 917.6 358.4 956.5 376.5 978.8 408 978.8 439.6 978.8 457.7 956.5 457.7 917.6 457.7 878.9 439.6 856.6 408 856.6ZM408 963C385.6 963 374.2 947.7 374.2 917.6 374.2 887.6 385.6 872.4 408 872.4 430.5 872.4 441.9 887.6 441.9 917.6 441.9 934.6 437.5 963 408 963ZM489.6 856.6H465.5C461.3 856.6 457.9 860 457.9 864.2V864.8C457.9 869 461.3 872.4 465.5 872.4H481.4V971.2C481.4 975.4 484.8 978.8 489 978.8H489.6C493.8 978.8 497.2 975.4 497.2 971.2V864.2C497.2 860 493.8 856.6 489.6 856.6ZM593 963H540.1L571.9 927.6C584.7 914.2 592.4 899.6 592.4 888.5 592.4 869.1 577.8 856.6 555.2 856.6 542.5 856.6 529.1 862.3 519.4 871.8 518 873.2 517.2 875.1 517.2 877.2 517.1 879.2 517.9 881.1 519.4 882.6L519.8 883C522.7 885.9 527.5 885.9 530.4 883 537.2 876.5 546.7 872.4 555.2 872.4 561.7 872.4 576.7 874 576.7 888.5 576.7 893.8 572.4 904.3 560.4 916.9L518.4 963.5C517.2 964.9 516.5 966.7 516.5 968.6V971.2C516.5 975.4 519.9 978.8 524.1 978.8H593C597.2 978.8 600.6 975.4 600.6 971.2V970.6C600.6 966.4 597.2 963 593 963ZM649.1 904.7L678.3 870.2C679.5 868.8 680.1 867.1 680.1 865.3V864.2C680.1 860 676.7 856.6 672.5 856.6H617.4C613.2 856.6 609.8 860 609.8 864.2V864.8C609.8 869 613.2 872.4 617.4 872.4H655.9L626.8 906.6C625.6 908 625 909.7 625 911.5V912.6C625 916.8 628.4 920.2 632.6 920.2H642.3C654.7 920.2 669.5 923.6 669.5 940 669.5 954.4 659.4 963 642.6 963 634.1 963 624.9 960.4 618 956 614.6 953.9 610.2 954.7 607.9 957.9L607.5 958.3C606.2 960 605.7 962.2 606.1 964.3 606.5 966.4 607.8 968.2 609.6 969.3 619.3 975.3 631.3 978.8 642.6 978.8 668.1 978.8 685.3 962.9 685.3 939.4 685.3 920 671.3 906.9 649.1 904.7ZM772.6 930.4H762.6V903.1C762.6 898.9 759.2 895.5 755 895.5H754.4C750.2 895.5 746.9 898.9 746.9 903.1V930.4H714.3L750.2 868C751.5 865.6 751.5 862.8 750.2 860.4 748.8 858.1 746.3 856.6 743.6 856.6H742.9C740.2 856.6 737.7 858.1 736.4 860.4L694.9 932.5C694.2 933.7 693.9 935 693.9 936.3V938.6C693.9 942.8 697.3 946.2 701.5 946.2H746.9V971.2C746.9 975.4 750.2 978.8 754.4 978.8H755C759.2 978.8 762.6 975.4 762.6 971.2V946.2H772.6C776.8 946.2 780.2 942.8 780.2 938.6V938C780.2 933.8 776.8 930.4 772.6 930.4ZM818.2 900.8C813 900.8 806.7 901.7 800.5 903.1V872.4H848.3C852.5 872.4 855.8 869 855.8 864.8V864.2C855.8 860 852.5 856.6 848.3 856.6H792.4C788.2 856.6 784.8 860 784.8 864.2V914.1C784.8 916.5 786 918.9 788 920.3 790.1 921.7 792.7 922 795 921.1 802.4 918.4 811.5 916.6 818.2 916.6 834.4 916.6 844 924.3 844 937.4 844 953.2 834.2 962.7 817.9 962.7 809.3 962.7 798.4 959.4 790.1 954.3 786.6 952.1 782 953.2 779.7 956.7L779.5 957.1C778.4 958.8 778.1 960.8 778.5 962.8 779 964.8 780.2 966.5 781.9 967.5 792.6 974.3 806.4 978.5 817.9 978.5 842.9 978.5 859.8 961.9 859.8 937.4 859.8 915.5 843.1 900.8 818.2 900.8Z",
        "width": 1000
      },
      "search": [
        "barcode"
      ]
    },
    {
      "uid": "a727daa5ecb3d3a875980da6859f4042",
      "css": "visitor",
      "code": 59479,
      "src": "custom_icons",
      "selected": true,
      "svg": {
        "path": "M498.4 558.3C646.1 558.3 766 438.4 766 290.6S646.1 23.8 498.4 23.8 230.7 143.7 230.7 290.6 350.6 558.3 498.4 558.3ZM498.4 93.6C606.7 93.6 695.4 182.3 695.4 290.6S606.7 487.7 498.4 487.7 301.3 399 301.3 290.6 390 93.6 498.4 93.6ZM35.3 976.2H964.7C984.4 976.2 1000 960.6 1000 940.9 1000 756.2 849.8 605.1 664.2 605.1H335.8C151.1 605.1 0 755.3 0 940.9 0 960.6 15.6 976.2 35.3 976.2ZM335.8 675.7H664.2C798.8 675.7 909.7 775.9 926.9 905.6H73.1C90.3 776.7 201.2 675.7 335.8 675.7Z",
        "width": 1000
      },
      "search": [
        "visitor"
      ]
    },
    {
      "uid": "f94b6aa4c3e09b5f5e42d6ebe80f2c3b",
      "css": "upload",
      "code": 59488,
      "src": "custom_icons",
      "selected": true,
      "svg": {
        "path": "M323.7 764.7H676.4V411.7H911.7L500 0 88.3 411.7H323.6V764.7H323.7ZM88.3 882.2H911.7V1000H88.3V882.2Z",
        "width": 1000
      },
      "search": [
        "upload"
      ]
    },
    {
      "uid": "4d64bd1262081f5e3537945c853e9104",
      "css": "open",
      "code": 59489,
      "src": "custom_icons",
      "selected": true,
      "svg": {
        "path": "M992.1 516.2C984.5 500.2 972.7 487.9 957.1 479.3 941.3 470.7 924.1 466.5 905.2 466.5H804.6V382.7C804.6 350.5 793.1 322.9 770 299.9 747 276.8 719.4 265.3 687.3 265.3H402.3V248.6C402.3 216.4 390.8 188.8 367.7 165.8 344.7 142.7 317.1 131.2 285 131.2H117.3C85.2 131.2 57.6 142.7 34.6 165.8 11.5 188.8 0 216.4 0 248.6V751.4C0 783.6 11.5 811.2 34.6 834.2 57.6 857.3 85.2 868.8 117.3 868.8H687.3C710.7 868.8 735.1 862.8 760.6 850.7 786.1 838.7 806.4 823.4 821.4 804.9L975.9 614.7C992 594.5 1000 573.5 1000 551.9 1000 539.3 997.4 527.4 992.1 516.2ZM67.1 248.6C67.1 234.6 71.9 222.7 81.7 212.9 91.5 203.2 103.4 198.3 117.3 198.3H285C298.9 198.3 310.8 203.2 320.6 212.9 330.4 222.7 335.3 234.6 335.3 248.6V282.1C335.3 296.1 340.2 307.9 349.9 317.7S371.6 332.4 385.5 332.4H687.3C701.2 332.4 713.1 337.3 722.9 347 732.7 356.8 737.6 368.7 737.6 382.7V466.5H335.3C311.5 466.5 287.1 472.5 261.9 484.6 236.8 496.6 216.5 511.9 201.1 530.4L67.1 695.4V248.6ZM923.5 572.3L769.5 762.4C760.8 773.3 748.4 782.5 732.3 790.2 716.3 797.9 701.2 801.7 687.3 801.7H117.3C98.8 801.7 89.6 795.6 89.6 783.4 89.6 777.8 92.7 770.8 99 762.4L253 572.3C262.1 561.5 274.6 552.3 290.5 544.8 306.4 537.3 321.3 533.5 335.3 533.5H905.2C923.7 533.5 933 539.6 933 551.9 933 557.8 929.8 564.6 923.5 572.3Z",
        "width": 1000
      },
      "search": [
        "open"
      ]
    }
  ]
}